('C:\\Users\\z0044wmy\\Desktop\\mark_gen_git\\Mark_gen_git\\dist\\marking_generator_module_v4.exe',
 False,
 False,
 False,
 None,
 None,
 False,
 False,
 '<?xml version="1.0" encoding="UTF-8" standalone="yes"?><assembly manifestVersion="1.0" xmlns="urn:schemas-microsoft-com:asm.v1"><assemblyIdentity name="marking_generator_module_v4" processorArchitecture="amd64" type="win32" version="1.0.0.0"/><dependency><dependentAssembly><assemblyIdentity language="*" name="Microsoft.Windows.Common-Controls" processorArchitecture="*" publicKeyToken="6595b64144ccf1df" type="win32" version="6.0.0.0"/><compatibility xmlns="urn:schemas-microsoft-com:compatibility.v1"/></dependentAssembly></dependency><compatibility xmlns="urn:schemas-microsoft-com:compatibility.v1"><application><supportedOS Id="{e2011457-1546-43c5-a5fe-008deee3d3f0}"/><supportedOS Id="{35138b9a-5d96-4fbd-8e2d-a2440225f93a}"/><supportedOS Id="{4a2f28e3-53b9-4441-ba9c-d69d4a4a6e38}"/><supportedOS Id="{1f676c76-80e1-4239-95bb-83d0f6d0da78}"/><supportedOS Id="{8e0f7a12-bfb3-4fe8-b9a5-48fd50a15a9a}"/></application></compatibility></assembly>',
 True,
 'marking_generator_module_v4.pkg',
 [('PYZ-00.pyz',
   'C:\\Users\\z0044wmy\\Desktop\\mark_gen_git\\Mark_gen_git\\build\\marking_generator_module_v4\\PYZ-00.pyz',
   'PYZ'),
  ('struct',
   'c:\\users\\z0044wmy\\appdata\\local\\continuum\\anaconda3\\envs\\mark_gen_git\\lib\\struct.pyo',
   'PYMODULE'),
  ('pyimod01_os_path',
   'c:\\users\\z0044wmy\\appdata\\local\\continuum\\anaconda3\\envs\\mark_gen_git\\lib\\site-packages\\PyInstaller\\loader\\pyimod01_os_path.pyc',
   'PYMODULE'),
  ('pyimod02_archive',
   'c:\\users\\z0044wmy\\appdata\\local\\continuum\\anaconda3\\envs\\mark_gen_git\\lib\\site-packages\\PyInstaller\\loader\\pyimod02_archive.pyc',
   'PYMODULE'),
  ('pyimod03_importers',
   'c:\\users\\z0044wmy\\appdata\\local\\continuum\\anaconda3\\envs\\mark_gen_git\\lib\\site-packages\\PyInstaller\\loader\\pyimod03_importers.pyc',
   'PYMODULE'),
  ('pyiboot01_bootstrap',
   'c:\\users\\z0044wmy\\appdata\\local\\continuum\\anaconda3\\envs\\mark_gen_git\\lib\\site-packages\\PyInstaller\\loader\\pyiboot01_bootstrap.py',
   'PYSOURCE'),
  ('pyi_rth_win32comgenpy',
   'c:\\users\\z0044wmy\\appdata\\local\\continuum\\anaconda3\\envs\\mark_gen_git\\lib\\site-packages\\PyInstaller\\loader\\rthooks\\pyi_rth_win32comgenpy.py',
   'PYSOURCE'),
  ('pyi_rth_pyqt5',
   'c:\\users\\z0044wmy\\appdata\\local\\continuum\\anaconda3\\envs\\mark_gen_git\\lib\\site-packages\\PyInstaller\\loader\\rthooks\\pyi_rth_pyqt5.py',
   'PYSOURCE'),
  ('marking_generator_module_v4',
   'C:\\Users\\z0044wmy\\Desktop\\mark_gen_git\\Mark_gen_git\\marking_generator_module_v4.py',
   'PYSOURCE'),
  ('python37.dll',
   'c:\\users\\z0044wmy\\appdata\\local\\continuum\\anaconda3\\envs\\mark_gen_git\\python37.dll',
   'BINARY'),
  ('api-ms-win-crt-locale-l1-1-0.dll',
   'c:\\users\\z0044wmy\\appdata\\local\\continuum\\anaconda3\\envs\\mark_gen_git\\api-ms-win-crt-locale-l1-1-0.dll',
   'BINARY'),
  ('api-ms-win-crt-math-l1-1-0.dll',
   'c:\\users\\z0044wmy\\appdata\\local\\continuum\\anaconda3\\envs\\mark_gen_git\\api-ms-win-crt-math-l1-1-0.dll',
   'BINARY'),
  ('VCRUNTIME140.dll',
   'c:\\users\\z0044wmy\\appdata\\local\\continuum\\anaconda3\\envs\\mark_gen_git\\VCRUNTIME140.dll',
   'BINARY'),
  ('api-ms-win-crt-heap-l1-1-0.dll',
   'c:\\users\\z0044wmy\\appdata\\local\\continuum\\anaconda3\\envs\\mark_gen_git\\api-ms-win-crt-heap-l1-1-0.dll',
   'BINARY'),
  ('api-ms-win-crt-runtime-l1-1-0.dll',
   'c:\\users\\z0044wmy\\appdata\\local\\continuum\\anaconda3\\envs\\mark_gen_git\\api-ms-win-crt-runtime-l1-1-0.dll',
   'BINARY'),
  ('api-ms-win-crt-stdio-l1-1-0.dll',
   'c:\\users\\z0044wmy\\appdata\\local\\continuum\\anaconda3\\envs\\mark_gen_git\\api-ms-win-crt-stdio-l1-1-0.dll',
   'BINARY'),
  ('api-ms-win-crt-environment-l1-1-0.dll',
   'c:\\users\\z0044wmy\\appdata\\local\\continuum\\anaconda3\\envs\\mark_gen_git\\api-ms-win-crt-environment-l1-1-0.dll',
   'BINARY'),
  ('api-ms-win-crt-process-l1-1-0.dll',
   'c:\\users\\z0044wmy\\appdata\\local\\continuum\\anaconda3\\envs\\mark_gen_git\\api-ms-win-crt-process-l1-1-0.dll',
   'BINARY'),
  ('api-ms-win-crt-filesystem-l1-1-0.dll',
   'c:\\users\\z0044wmy\\appdata\\local\\continuum\\anaconda3\\envs\\mark_gen_git\\api-ms-win-crt-filesystem-l1-1-0.dll',
   'BINARY'),
  ('api-ms-win-crt-time-l1-1-0.dll',
   'c:\\users\\z0044wmy\\appdata\\local\\continuum\\anaconda3\\envs\\mark_gen_git\\api-ms-win-crt-time-l1-1-0.dll',
   'BINARY'),
  ('api-ms-win-crt-string-l1-1-0.dll',
   'c:\\users\\z0044wmy\\appdata\\local\\continuum\\anaconda3\\envs\\mark_gen_git\\api-ms-win-crt-string-l1-1-0.dll',
   'BINARY'),
  ('api-ms-win-crt-convert-l1-1-0.dll',
   'c:\\users\\z0044wmy\\appdata\\local\\continuum\\anaconda3\\envs\\mark_gen_git\\api-ms-win-crt-convert-l1-1-0.dll',
   'BINARY'),
  ('api-ms-win-crt-conio-l1-1-0.dll',
   'c:\\users\\z0044wmy\\appdata\\local\\continuum\\anaconda3\\envs\\mark_gen_git\\api-ms-win-crt-conio-l1-1-0.dll',
   'BINARY'),
  ('ucrtbase.dll',
   'c:\\users\\z0044wmy\\appdata\\local\\continuum\\anaconda3\\envs\\mark_gen_git\\ucrtbase.dll',
   'BINARY'),
  ('api-ms-win-core-namedpipe-l1-1-0.dll',
   'c:\\users\\z0044wmy\\appdata\\local\\continuum\\anaconda3\\envs\\mark_gen_git\\api-ms-win-core-namedpipe-l1-1-0.dll',
   'BINARY'),
  ('api-ms-win-core-processthreads-l1-1-1.dll',
   'c:\\users\\z0044wmy\\appdata\\local\\continuum\\anaconda3\\envs\\mark_gen_git\\api-ms-win-core-processthreads-l1-1-1.dll',
   'BINARY'),
  ('api-ms-win-core-timezone-l1-1-0.dll',
   'c:\\users\\z0044wmy\\appdata\\local\\continuum\\anaconda3\\envs\\mark_gen_git\\api-ms-win-core-timezone-l1-1-0.dll',
   'BINARY'),
  ('api-ms-win-core-string-l1-1-0.dll',
   'c:\\users\\z0044wmy\\appdata\\local\\continuum\\anaconda3\\envs\\mark_gen_git\\api-ms-win-core-string-l1-1-0.dll',
   'BINARY'),
  ('api-ms-win-core-debug-l1-1-0.dll',
   'c:\\users\\z0044wmy\\appdata\\local\\continuum\\anaconda3\\envs\\mark_gen_git\\api-ms-win-core-debug-l1-1-0.dll',
   'BINARY'),
  ('api-ms-win-core-util-l1-1-0.dll',
   'c:\\users\\z0044wmy\\appdata\\local\\continuum\\anaconda3\\envs\\mark_gen_git\\api-ms-win-core-util-l1-1-0.dll',
   'BINARY'),
  ('api-ms-win-core-heap-l1-1-0.dll',
   'c:\\users\\z0044wmy\\appdata\\local\\continuum\\anaconda3\\envs\\mark_gen_git\\api-ms-win-core-heap-l1-1-0.dll',
   'BINARY'),
  ('api-ms-win-core-memory-l1-1-0.dll',
   'c:\\users\\z0044wmy\\appdata\\local\\continuum\\anaconda3\\envs\\mark_gen_git\\api-ms-win-core-memory-l1-1-0.dll',
   'BINARY'),
  ('api-ms-win-core-synch-l1-1-0.dll',
   'c:\\users\\z0044wmy\\appdata\\local\\continuum\\anaconda3\\envs\\mark_gen_git\\api-ms-win-core-synch-l1-1-0.dll',
   'BINARY'),
  ('api-ms-win-core-file-l2-1-0.dll',
   'c:\\users\\z0044wmy\\appdata\\local\\continuum\\anaconda3\\envs\\mark_gen_git\\api-ms-win-core-file-l2-1-0.dll',
   'BINARY'),
  ('api-ms-win-core-processthreads-l1-1-0.dll',
   'c:\\users\\z0044wmy\\appdata\\local\\continuum\\anaconda3\\envs\\mark_gen_git\\api-ms-win-core-processthreads-l1-1-0.dll',
   'BINARY'),
  ('api-ms-win-core-file-l1-1-0.dll',
   'c:\\users\\z0044wmy\\appdata\\local\\continuum\\anaconda3\\envs\\mark_gen_git\\api-ms-win-core-file-l1-1-0.dll',
   'BINARY'),
  ('api-ms-win-core-sysinfo-l1-1-0.dll',
   'c:\\users\\z0044wmy\\appdata\\local\\continuum\\anaconda3\\envs\\mark_gen_git\\api-ms-win-core-sysinfo-l1-1-0.dll',
   'BINARY'),
  ('api-ms-win-core-profile-l1-1-0.dll',
   'c:\\users\\z0044wmy\\appdata\\local\\continuum\\anaconda3\\envs\\mark_gen_git\\api-ms-win-core-profile-l1-1-0.dll',
   'BINARY'),
  ('api-ms-win-core-rtlsupport-l1-1-0.dll',
   'c:\\users\\z0044wmy\\appdata\\local\\continuum\\anaconda3\\envs\\mark_gen_git\\api-ms-win-core-rtlsupport-l1-1-0.dll',
   'BINARY'),
  ('api-ms-win-core-processenvironment-l1-1-0.dll',
   'c:\\users\\z0044wmy\\appdata\\local\\continuum\\anaconda3\\envs\\mark_gen_git\\api-ms-win-core-processenvironment-l1-1-0.dll',
   'BINARY'),
  ('api-ms-win-core-handle-l1-1-0.dll',
   'c:\\users\\z0044wmy\\appdata\\local\\continuum\\anaconda3\\envs\\mark_gen_git\\api-ms-win-core-handle-l1-1-0.dll',
   'BINARY'),
  ('api-ms-win-core-errorhandling-l1-1-0.dll',
   'c:\\users\\z0044wmy\\appdata\\local\\continuum\\anaconda3\\envs\\mark_gen_git\\api-ms-win-core-errorhandling-l1-1-0.dll',
   'BINARY'),
  ('api-ms-win-core-file-l1-2-0.dll',
   'c:\\users\\z0044wmy\\appdata\\local\\continuum\\anaconda3\\envs\\mark_gen_git\\api-ms-win-core-file-l1-2-0.dll',
   'BINARY'),
  ('api-ms-win-core-libraryloader-l1-1-0.dll',
   'c:\\users\\z0044wmy\\appdata\\local\\continuum\\anaconda3\\envs\\mark_gen_git\\api-ms-win-core-libraryloader-l1-1-0.dll',
   'BINARY'),
  ('api-ms-win-core-console-l1-1-0.dll',
   'c:\\users\\z0044wmy\\appdata\\local\\continuum\\anaconda3\\envs\\mark_gen_git\\api-ms-win-core-console-l1-1-0.dll',
   'BINARY'),
  ('api-ms-win-core-interlocked-l1-1-0.dll',
   'c:\\users\\z0044wmy\\appdata\\local\\continuum\\anaconda3\\envs\\mark_gen_git\\api-ms-win-core-interlocked-l1-1-0.dll',
   'BINARY'),
  ('api-ms-win-core-localization-l1-2-0.dll',
   'c:\\users\\z0044wmy\\appdata\\local\\continuum\\anaconda3\\envs\\mark_gen_git\\api-ms-win-core-localization-l1-2-0.dll',
   'BINARY'),
  ('api-ms-win-core-synch-l1-2-0.dll',
   'c:\\users\\z0044wmy\\appdata\\local\\continuum\\anaconda3\\envs\\mark_gen_git\\api-ms-win-core-synch-l1-2-0.dll',
   'BINARY'),
  ('api-ms-win-core-datetime-l1-1-0.dll',
   'c:\\users\\z0044wmy\\appdata\\local\\continuum\\anaconda3\\envs\\mark_gen_git\\api-ms-win-core-datetime-l1-1-0.dll',
   'BINARY'),
  ('PyQt5\\Qt\\plugins\\imageformats\\qtiff.dll',
   'C:\\users\\z0044wmy\\appdata\\local\\continuum\\anaconda3\\envs\\mark_gen_git\\lib\\site-packages\\PyQt5\\Qt\\plugins\\imageformats\\qtiff.dll',
   'BINARY'),
  ('PyQt5\\Qt\\plugins\\iconengines\\qsvgicon.dll',
   'C:\\users\\z0044wmy\\appdata\\local\\continuum\\anaconda3\\envs\\mark_gen_git\\lib\\site-packages\\PyQt5\\Qt\\plugins\\iconengines\\qsvgicon.dll',
   'BINARY'),
  ('PyQt5\\Qt\\plugins\\platforms\\qoffscreen.dll',
   'C:\\users\\z0044wmy\\appdata\\local\\continuum\\anaconda3\\envs\\mark_gen_git\\lib\\site-packages\\PyQt5\\Qt\\plugins\\platforms\\qoffscreen.dll',
   'BINARY'),
  ('PyQt5\\Qt\\plugins\\styles\\qwindowsvistastyle.dll',
   'C:\\users\\z0044wmy\\appdata\\local\\continuum\\anaconda3\\envs\\mark_gen_git\\lib\\site-packages\\PyQt5\\Qt\\plugins\\styles\\qwindowsvistastyle.dll',
   'BINARY'),
  ('PyQt5\\Qt\\plugins\\platforms\\qwindows.dll',
   'C:\\users\\z0044wmy\\appdata\\local\\continuum\\anaconda3\\envs\\mark_gen_git\\lib\\site-packages\\PyQt5\\Qt\\plugins\\platforms\\qwindows.dll',
   'BINARY'),
  ('PyQt5\\Qt\\plugins\\platforms\\qwebgl.dll',
   'C:\\users\\z0044wmy\\appdata\\local\\continuum\\anaconda3\\envs\\mark_gen_git\\lib\\site-packages\\PyQt5\\Qt\\plugins\\platforms\\qwebgl.dll',
   'BINARY'),
  ('libGLESv2.dll',
   'C:\\users\\z0044wmy\\appdata\\local\\continuum\\anaconda3\\envs\\mark_gen_git\\lib\\site-packages\\PyQt5\\Qt\\bin\\libGLESv2.dll',
   'BINARY'),
  ('pywintypes37.dll',
   'c:\\users\\z0044wmy\\appdata\\local\\continuum\\anaconda3\\envs\\mark_gen_git\\lib\\site-packages\\pywin32_system32\\pywintypes37.dll',
   'BINARY'),
  ('PyQt5\\Qt\\plugins\\imageformats\\qsvg.dll',
   'C:\\users\\z0044wmy\\appdata\\local\\continuum\\anaconda3\\envs\\mark_gen_git\\lib\\site-packages\\PyQt5\\Qt\\plugins\\imageformats\\qsvg.dll',
   'BINARY'),
  ('PyQt5\\Qt\\plugins\\imageformats\\qjpeg.dll',
   'C:\\users\\z0044wmy\\appdata\\local\\continuum\\anaconda3\\envs\\mark_gen_git\\lib\\site-packages\\PyQt5\\Qt\\plugins\\imageformats\\qjpeg.dll',
   'BINARY'),
  ('PyQt5\\Qt\\plugins\\imageformats\\qgif.dll',
   'C:\\users\\z0044wmy\\appdata\\local\\continuum\\anaconda3\\envs\\mark_gen_git\\lib\\site-packages\\PyQt5\\Qt\\plugins\\imageformats\\qgif.dll',
   'BINARY'),
  ('libEGL.dll',
   'C:\\users\\z0044wmy\\appdata\\local\\continuum\\anaconda3\\envs\\mark_gen_git\\lib\\site-packages\\PyQt5\\Qt\\bin\\libEGL.dll',
   'BINARY'),
  ('opengl32sw.dll',
   'C:\\users\\z0044wmy\\appdata\\local\\continuum\\anaconda3\\envs\\mark_gen_git\\lib\\site-packages\\PyQt5\\Qt\\bin\\opengl32sw.dll',
   'BINARY'),
  ('PyQt5\\Qt\\plugins\\imageformats\\qwbmp.dll',
   'C:\\users\\z0044wmy\\appdata\\local\\continuum\\anaconda3\\envs\\mark_gen_git\\lib\\site-packages\\PyQt5\\Qt\\plugins\\imageformats\\qwbmp.dll',
   'BINARY'),
  ('d3dcompiler_47.dll',
   'C:\\users\\z0044wmy\\appdata\\local\\continuum\\anaconda3\\envs\\mark_gen_git\\lib\\site-packages\\PyQt5\\Qt\\bin\\d3dcompiler_47.dll',
   'BINARY'),
  ('PyQt5\\Qt\\plugins\\platforms\\qminimal.dll',
   'C:\\users\\z0044wmy\\appdata\\local\\continuum\\anaconda3\\envs\\mark_gen_git\\lib\\site-packages\\PyQt5\\Qt\\plugins\\platforms\\qminimal.dll',
   'BINARY'),
  ('PyQt5\\Qt\\plugins\\imageformats\\qtga.dll',
   'C:\\users\\z0044wmy\\appdata\\local\\continuum\\anaconda3\\envs\\mark_gen_git\\lib\\site-packages\\PyQt5\\Qt\\plugins\\imageformats\\qtga.dll',
   'BINARY'),
  ('pythoncom37.dll',
   'c:\\users\\z0044wmy\\appdata\\local\\continuum\\anaconda3\\envs\\mark_gen_git\\lib\\site-packages\\pywin32_system32\\pythoncom37.dll',
   'BINARY'),
  ('PyQt5\\Qt\\plugins\\imageformats\\qicns.dll',
   'C:\\users\\z0044wmy\\appdata\\local\\continuum\\anaconda3\\envs\\mark_gen_git\\lib\\site-packages\\PyQt5\\Qt\\plugins\\imageformats\\qicns.dll',
   'BINARY'),
  ('PyQt5\\Qt\\plugins\\imageformats\\qico.dll',
   'C:\\users\\z0044wmy\\appdata\\local\\continuum\\anaconda3\\envs\\mark_gen_git\\lib\\site-packages\\PyQt5\\Qt\\plugins\\imageformats\\qico.dll',
   'BINARY'),
  ('PyQt5\\Qt\\plugins\\platformthemes\\qxdgdesktopportal.dll',
   'C:\\users\\z0044wmy\\appdata\\local\\continuum\\anaconda3\\envs\\mark_gen_git\\lib\\site-packages\\PyQt5\\Qt\\plugins\\platformthemes\\qxdgdesktopportal.dll',
   'BINARY'),
  ('PyQt5\\Qt\\plugins\\imageformats\\qwebp.dll',
   'C:\\users\\z0044wmy\\appdata\\local\\continuum\\anaconda3\\envs\\mark_gen_git\\lib\\site-packages\\PyQt5\\Qt\\plugins\\imageformats\\qwebp.dll',
   'BINARY'),
  ('select',
   'c:\\users\\z0044wmy\\appdata\\local\\continuum\\anaconda3\\envs\\mark_gen_git\\DLLs\\select.pyd',
   'EXTENSION'),
  ('win32trace',
   'c:\\users\\z0044wmy\\appdata\\local\\continuum\\anaconda3\\envs\\mark_gen_git\\lib\\site-packages\\win32\\win32trace.pyd',
   'EXTENSION'),
  ('_win32sysloader',
   'c:\\users\\z0044wmy\\appdata\\local\\continuum\\anaconda3\\envs\\mark_gen_git\\lib\\site-packages\\win32\\_win32sysloader.pyd',
   'EXTENSION'),
  ('_lzma',
   'c:\\users\\z0044wmy\\appdata\\local\\continuum\\anaconda3\\envs\\mark_gen_git\\DLLs\\_lzma.pyd',
   'EXTENSION'),
  ('_bz2',
   'c:\\users\\z0044wmy\\appdata\\local\\continuum\\anaconda3\\envs\\mark_gen_git\\DLLs\\_bz2.pyd',
   'EXTENSION'),
  ('win32ui',
   'c:\\users\\z0044wmy\\appdata\\local\\continuum\\anaconda3\\envs\\mark_gen_git\\lib\\site-packages\\Pythonwin\\win32ui.pyd',
   'EXTENSION'),
  ('_socket',
   'c:\\users\\z0044wmy\\appdata\\local\\continuum\\anaconda3\\envs\\mark_gen_git\\DLLs\\_socket.pyd',
   'EXTENSION'),
  ('_hashlib',
   'c:\\users\\z0044wmy\\appdata\\local\\continuum\\anaconda3\\envs\\mark_gen_git\\DLLs\\_hashlib.pyd',
   'EXTENSION'),
  ('_ssl',
   'c:\\users\\z0044wmy\\appdata\\local\\continuum\\anaconda3\\envs\\mark_gen_git\\DLLs\\_ssl.pyd',
   'EXTENSION'),
  ('unicodedata',
   'c:\\users\\z0044wmy\\appdata\\local\\continuum\\anaconda3\\envs\\mark_gen_git\\DLLs\\unicodedata.pyd',
   'EXTENSION'),
  ('pyexpat',
   'c:\\users\\z0044wmy\\appdata\\local\\continuum\\anaconda3\\envs\\mark_gen_git\\DLLs\\pyexpat.pyd',
   'EXTENSION'),
  ('win32api',
   'c:\\users\\z0044wmy\\appdata\\local\\continuum\\anaconda3\\envs\\mark_gen_git\\lib\\site-packages\\win32\\win32api.pyd',
   'EXTENSION'),
  ('PyQt5.QtWidgets',
   'c:\\users\\z0044wmy\\appdata\\local\\continuum\\anaconda3\\envs\\mark_gen_git\\lib\\site-packages\\PyQt5\\QtWidgets.pyd',
   'EXTENSION'),
  ('PyQt5.QtGui',
   'c:\\users\\z0044wmy\\appdata\\local\\continuum\\anaconda3\\envs\\mark_gen_git\\lib\\site-packages\\PyQt5\\QtGui.pyd',
   'EXTENSION'),
  ('PyQt5.QtCore',
   'c:\\users\\z0044wmy\\appdata\\local\\continuum\\anaconda3\\envs\\mark_gen_git\\lib\\site-packages\\PyQt5\\QtCore.pyd',
   'EXTENSION'),
  ('PyQt5.sip',
   'c:\\users\\z0044wmy\\appdata\\local\\continuum\\anaconda3\\envs\\mark_gen_git\\lib\\site-packages\\PyQt5\\sip.cp37-win_amd64.pyd',
   'EXTENSION'),
  ('_elementtree',
   'c:\\users\\z0044wmy\\appdata\\local\\continuum\\anaconda3\\envs\\mark_gen_git\\DLLs\\_elementtree.pyd',
   'EXTENSION'),
  ('lxml.etree',
   'c:\\users\\z0044wmy\\appdata\\local\\continuum\\anaconda3\\envs\\mark_gen_git\\lib\\site-packages\\lxml\\etree.cp37-win_amd64.pyd',
   'EXTENSION'),
  ('lxml._elementpath',
   'c:\\users\\z0044wmy\\appdata\\local\\continuum\\anaconda3\\envs\\mark_gen_git\\lib\\site-packages\\lxml\\_elementpath.cp37-win_amd64.pyd',
   'EXTENSION'),
  ('_decimal',
   'c:\\users\\z0044wmy\\appdata\\local\\continuum\\anaconda3\\envs\\mark_gen_git\\DLLs\\_decimal.pyd',
   'EXTENSION'),
  ('PIL._webp',
   'c:\\users\\z0044wmy\\appdata\\local\\continuum\\anaconda3\\envs\\mark_gen_git\\lib\\site-packages\\PIL\\_webp.cp37-win_amd64.pyd',
   'EXTENSION'),
  ('PIL._imagingtk',
   'c:\\users\\z0044wmy\\appdata\\local\\continuum\\anaconda3\\envs\\mark_gen_git\\lib\\site-packages\\PIL\\_imagingtk.cp37-win_amd64.pyd',
   'EXTENSION'),
  ('PIL._imaging',
   'c:\\users\\z0044wmy\\appdata\\local\\continuum\\anaconda3\\envs\\mark_gen_git\\lib\\site-packages\\PIL\\_imaging.cp37-win_amd64.pyd',
   'EXTENSION'),
  ('api-ms-win-crt-utility-l1-1-0.dll',
   'c:\\users\\z0044wmy\\appdata\\local\\continuum\\anaconda3\\envs\\mark_gen_git\\api-ms-win-crt-utility-l1-1-0.dll',
   'BINARY'),
  ('Qt5Core.dll',
   'c:\\users\\z0044wmy\\appdata\\local\\continuum\\anaconda3\\envs\\mark_gen_git\\lib\\site-packages\\PyQt5\\Qt\\bin\\Qt5Core.dll',
   'BINARY'),
  ('Qt5Gui.dll',
   'c:\\users\\z0044wmy\\appdata\\local\\continuum\\anaconda3\\envs\\mark_gen_git\\lib\\site-packages\\PyQt5\\Qt\\bin\\Qt5Gui.dll',
   'BINARY'),
  ('Qt5Svg.dll',
   'c:\\users\\z0044wmy\\appdata\\local\\continuum\\anaconda3\\envs\\mark_gen_git\\lib\\site-packages\\PyQt5\\Qt\\bin\\Qt5Svg.dll',
   'BINARY'),
  ('Qt5Widgets.dll',
   'c:\\users\\z0044wmy\\appdata\\local\\continuum\\anaconda3\\envs\\mark_gen_git\\lib\\site-packages\\PyQt5\\Qt\\bin\\Qt5Widgets.dll',
   'BINARY'),
  ('VCRUNTIME140_1.dll',
   'c:\\users\\z0044wmy\\appdata\\local\\continuum\\anaconda3\\envs\\mark_gen_git\\lib\\site-packages\\PyQt5\\Qt\\bin\\VCRUNTIME140_1.dll',
   'BINARY'),
  ('MSVCP140.dll',
   'c:\\users\\z0044wmy\\appdata\\local\\continuum\\anaconda3\\envs\\mark_gen_git\\MSVCP140.dll',
   'BINARY'),
  ('Qt5Quick.dll',
   'c:\\users\\z0044wmy\\appdata\\local\\continuum\\anaconda3\\envs\\mark_gen_git\\lib\\site-packages\\PyQt5\\Qt\\bin\\Qt5Quick.dll',
   'BINARY'),
  ('Qt5WebSockets.dll',
   'c:\\users\\z0044wmy\\appdata\\local\\continuum\\anaconda3\\envs\\mark_gen_git\\lib\\site-packages\\PyQt5\\Qt\\bin\\Qt5WebSockets.dll',
   'BINARY'),
  ('Qt5Network.dll',
   'c:\\users\\z0044wmy\\appdata\\local\\continuum\\anaconda3\\envs\\mark_gen_git\\lib\\site-packages\\PyQt5\\Qt\\bin\\Qt5Network.dll',
   'BINARY'),
  ('Qt5DBus.dll',
   'c:\\users\\z0044wmy\\appdata\\local\\continuum\\anaconda3\\envs\\mark_gen_git\\lib\\site-packages\\PyQt5\\Qt\\bin\\Qt5DBus.dll',
   'BINARY'),
  ('mfc140u.dll',
   'c:\\users\\z0044wmy\\appdata\\local\\continuum\\anaconda3\\envs\\mark_gen_git\\lib\\site-packages\\Pythonwin\\mfc140u.dll',
   'BINARY'),
  ('libcrypto-1_1-x64.dll',
   'c:\\users\\z0044wmy\\appdata\\local\\continuum\\anaconda3\\envs\\mark_gen_git\\lib\\site-packages\\PyQt5\\Qt\\bin\\libcrypto-1_1-x64.dll',
   'BINARY'),
  ('libssl-1_1-x64.dll',
   'c:\\users\\z0044wmy\\appdata\\local\\continuum\\anaconda3\\envs\\mark_gen_git\\lib\\site-packages\\PyQt5\\Qt\\bin\\libssl-1_1-x64.dll',
   'BINARY'),
  ('python3.dll',
   'c:\\users\\z0044wmy\\appdata\\local\\continuum\\anaconda3\\envs\\mark_gen_git\\python3.dll',
   'BINARY'),
  ('MSVCP140_1.dll',
   'c:\\users\\z0044wmy\\appdata\\local\\continuum\\anaconda3\\envs\\mark_gen_git\\lib\\site-packages\\PyQt5\\Qt\\bin\\MSVCP140_1.dll',
   'BINARY'),
  ('Qt5QmlModels.dll',
   'c:\\users\\z0044wmy\\appdata\\local\\continuum\\anaconda3\\envs\\mark_gen_git\\lib\\site-packages\\PyQt5\\Qt\\bin\\Qt5QmlModels.dll',
   'BINARY'),
  ('Qt5Qml.dll',
   'c:\\users\\z0044wmy\\appdata\\local\\continuum\\anaconda3\\envs\\mark_gen_git\\lib\\site-packages\\PyQt5\\Qt\\bin\\Qt5Qml.dll',
   'BINARY'),
  ('api-ms-win-crt-multibyte-l1-1-0.dll',
   'c:\\users\\z0044wmy\\appdata\\local\\continuum\\anaconda3\\envs\\mark_gen_git\\api-ms-win-crt-multibyte-l1-1-0.dll',
   'BINARY'),
  ('base_library.zip',
   'C:\\Users\\z0044wmy\\Desktop\\mark_gen_git\\Mark_gen_git\\build\\marking_generator_module_v4\\base_library.zip',
   'DATA'),
  ('PyQt5\\Qt\\translations\\qtbase_he.qm',
   'C:\\users\\z0044wmy\\appdata\\local\\continuum\\anaconda3\\envs\\mark_gen_git\\lib\\site-packages\\PyQt5\\Qt\\translations\\qtbase_he.qm',
   'DATA'),
  ('docx\\templates\\default-footer.xml',
   'c:\\users\\z0044wmy\\appdata\\local\\continuum\\anaconda3\\envs\\mark_gen_git\\lib\\site-packages\\docx\\templates\\default-footer.xml',
   'DATA'),
  ('PyQt5\\Qt\\translations\\qtbase_zh_TW.qm',
   'C:\\users\\z0044wmy\\appdata\\local\\continuum\\anaconda3\\envs\\mark_gen_git\\lib\\site-packages\\PyQt5\\Qt\\translations\\qtbase_zh_TW.qm',
   'DATA'),
  ('PyQt5\\Qt\\translations\\qtbase_pl.qm',
   'C:\\users\\z0044wmy\\appdata\\local\\continuum\\anaconda3\\envs\\mark_gen_git\\lib\\site-packages\\PyQt5\\Qt\\translations\\qtbase_pl.qm',
   'DATA'),
  ('PyQt5\\Qt\\translations\\qtbase_fr.qm',
   'C:\\users\\z0044wmy\\appdata\\local\\continuum\\anaconda3\\envs\\mark_gen_git\\lib\\site-packages\\PyQt5\\Qt\\translations\\qtbase_fr.qm',
   'DATA'),
  ('PyQt5\\Qt\\translations\\qtbase_lv.qm',
   'C:\\users\\z0044wmy\\appdata\\local\\continuum\\anaconda3\\envs\\mark_gen_git\\lib\\site-packages\\PyQt5\\Qt\\translations\\qtbase_lv.qm',
   'DATA'),
  ('PyQt5\\Qt\\translations\\qtbase_it.qm',
   'C:\\users\\z0044wmy\\appdata\\local\\continuum\\anaconda3\\envs\\mark_gen_git\\lib\\site-packages\\PyQt5\\Qt\\translations\\qtbase_it.qm',
   'DATA'),
  ('PyQt5\\Qt\\translations\\qtbase_ko.qm',
   'C:\\users\\z0044wmy\\appdata\\local\\continuum\\anaconda3\\envs\\mark_gen_git\\lib\\site-packages\\PyQt5\\Qt\\translations\\qtbase_ko.qm',
   'DATA'),
  ('PyQt5\\Qt\\translations\\qtbase_en.qm',
   'C:\\users\\z0044wmy\\appdata\\local\\continuum\\anaconda3\\envs\\mark_gen_git\\lib\\site-packages\\PyQt5\\Qt\\translations\\qtbase_en.qm',
   'DATA'),
  ('PyQt5\\Qt\\translations\\qtbase_ja.qm',
   'C:\\users\\z0044wmy\\appdata\\local\\continuum\\anaconda3\\envs\\mark_gen_git\\lib\\site-packages\\PyQt5\\Qt\\translations\\qtbase_ja.qm',
   'DATA'),
  ('Include\\pyconfig.h',
   'c:\\users\\z0044wmy\\appdata\\local\\continuum\\anaconda3\\envs\\mark_gen_git\\Include\\pyconfig.h',
   'DATA'),
  ('PyQt5\\Qt\\translations\\qtbase_da.qm',
   'C:\\users\\z0044wmy\\appdata\\local\\continuum\\anaconda3\\envs\\mark_gen_git\\lib\\site-packages\\PyQt5\\Qt\\translations\\qtbase_da.qm',
   'DATA'),
  ('PyQt5\\Qt\\translations\\qtbase_cs.qm',
   'C:\\users\\z0044wmy\\appdata\\local\\continuum\\anaconda3\\envs\\mark_gen_git\\lib\\site-packages\\PyQt5\\Qt\\translations\\qtbase_cs.qm',
   'DATA'),
  ('PyQt5\\Qt\\translations\\qtbase_uk.qm',
   'C:\\users\\z0044wmy\\appdata\\local\\continuum\\anaconda3\\envs\\mark_gen_git\\lib\\site-packages\\PyQt5\\Qt\\translations\\qtbase_uk.qm',
   'DATA'),
  ('PyQt5\\Qt\\translations\\qtbase_sk.qm',
   'C:\\users\\z0044wmy\\appdata\\local\\continuum\\anaconda3\\envs\\mark_gen_git\\lib\\site-packages\\PyQt5\\Qt\\translations\\qtbase_sk.qm',
   'DATA'),
  ('docx\\templates\\default-settings.xml',
   'c:\\users\\z0044wmy\\appdata\\local\\continuum\\anaconda3\\envs\\mark_gen_git\\lib\\site-packages\\docx\\templates\\default-settings.xml',
   'DATA'),
  ('PyQt5\\Qt\\translations\\qtbase_ar.qm',
   'C:\\users\\z0044wmy\\appdata\\local\\continuum\\anaconda3\\envs\\mark_gen_git\\lib\\site-packages\\PyQt5\\Qt\\translations\\qtbase_ar.qm',
   'DATA'),
  ('docx\\templates\\default-header.xml',
   'c:\\users\\z0044wmy\\appdata\\local\\continuum\\anaconda3\\envs\\mark_gen_git\\lib\\site-packages\\docx\\templates\\default-header.xml',
   'DATA'),
  ('docx\\templates\\default-styles.xml',
   'c:\\users\\z0044wmy\\appdata\\local\\continuum\\anaconda3\\envs\\mark_gen_git\\lib\\site-packages\\docx\\templates\\default-styles.xml',
   'DATA'),
  ('PyQt5\\Qt\\translations\\qtbase_hu.qm',
   'C:\\users\\z0044wmy\\appdata\\local\\continuum\\anaconda3\\envs\\mark_gen_git\\lib\\site-packages\\PyQt5\\Qt\\translations\\qtbase_hu.qm',
   'DATA'),
  ('PyQt5\\Qt\\translations\\qtbase_ru.qm',
   'C:\\users\\z0044wmy\\appdata\\local\\continuum\\anaconda3\\envs\\mark_gen_git\\lib\\site-packages\\PyQt5\\Qt\\translations\\qtbase_ru.qm',
   'DATA'),
  ('PyQt5\\Qt\\translations\\qtbase_fi.qm',
   'C:\\users\\z0044wmy\\appdata\\local\\continuum\\anaconda3\\envs\\mark_gen_git\\lib\\site-packages\\PyQt5\\Qt\\translations\\qtbase_fi.qm',
   'DATA'),
  ('PyQt5\\Qt\\translations\\qtbase_bg.qm',
   'C:\\users\\z0044wmy\\appdata\\local\\continuum\\anaconda3\\envs\\mark_gen_git\\lib\\site-packages\\PyQt5\\Qt\\translations\\qtbase_bg.qm',
   'DATA'),
  ('docx\\templates\\default.docx',
   'c:\\users\\z0044wmy\\appdata\\local\\continuum\\anaconda3\\envs\\mark_gen_git\\lib\\site-packages\\docx\\templates\\default.docx',
   'DATA'),
  ('PyQt5\\Qt\\translations\\qtbase_gd.qm',
   'C:\\users\\z0044wmy\\appdata\\local\\continuum\\anaconda3\\envs\\mark_gen_git\\lib\\site-packages\\PyQt5\\Qt\\translations\\qtbase_gd.qm',
   'DATA'),
  ('PyQt5\\Qt\\translations\\qtbase_es.qm',
   'C:\\users\\z0044wmy\\appdata\\local\\continuum\\anaconda3\\envs\\mark_gen_git\\lib\\site-packages\\PyQt5\\Qt\\translations\\qtbase_es.qm',
   'DATA'),
  ('PyQt5\\Qt\\translations\\qtbase_de.qm',
   'C:\\users\\z0044wmy\\appdata\\local\\continuum\\anaconda3\\envs\\mark_gen_git\\lib\\site-packages\\PyQt5\\Qt\\translations\\qtbase_de.qm',
   'DATA'),
  ('PyQt5\\Qt\\translations\\qtbase_ca.qm',
   'C:\\users\\z0044wmy\\appdata\\local\\continuum\\anaconda3\\envs\\mark_gen_git\\lib\\site-packages\\PyQt5\\Qt\\translations\\qtbase_ca.qm',
   'DATA'),
  ('marking_generator_module_v4.exe.manifest',
   'C:\\Users\\z0044wmy\\Desktop\\mark_gen_git\\Mark_gen_git\\build\\marking_generator_module_v4\\marking_generator_module_v4.exe.manifest',
   'BINARY'),
  ('pyi-windows-manifest-filename marking_generator_module_v4.exe.manifest',
   '',
   'OPTION')],
 [],
 False,
 False,
 1593512772,
 [('runw.exe',
   'c:\\users\\z0044wmy\\appdata\\local\\continuum\\anaconda3\\envs\\mark_gen_git\\lib\\site-packages\\PyInstaller\\bootloader\\Windows-64bit\\runw.exe',
   'EXECUTABLE')])
