('C:\\Users\\z0044wmy\\Desktop\\mark_gen_git\\Mark_gen_git\\build\\marking_generator_module_v4\\PYZ-00.pyz',
 [('os',
   'c:\\users\\z0044wmy\\appdata\\local\\continuum\\anaconda3\\envs\\mark_gen_git\\lib\\os.py',
   'PYMODULE'),
  ('subprocess',
   'c:\\users\\z0044wmy\\appdata\\local\\continuum\\anaconda3\\envs\\mark_gen_git\\lib\\subprocess.py',
   'PYMODULE'),
  ('selectors',
   'c:\\users\\z0044wmy\\appdata\\local\\continuum\\anaconda3\\envs\\mark_gen_git\\lib\\selectors.py',
   'PYMODULE'),
  ('threading',
   'c:\\users\\z0044wmy\\appdata\\local\\continuum\\anaconda3\\envs\\mark_gen_git\\lib\\threading.py',
   'PYMODULE'),
  ('_threading_local',
   'c:\\users\\z0044wmy\\appdata\\local\\continuum\\anaconda3\\envs\\mark_gen_git\\lib\\_threading_local.py',
   'PYMODULE'),
  ('contextlib',
   'c:\\users\\z0044wmy\\appdata\\local\\continuum\\anaconda3\\envs\\mark_gen_git\\lib\\contextlib.py',
   'PYMODULE'),
  ('signal',
   'c:\\users\\z0044wmy\\appdata\\local\\continuum\\anaconda3\\envs\\mark_gen_git\\lib\\signal.py',
   'PYMODULE'),
  ('_strptime',
   'c:\\users\\z0044wmy\\appdata\\local\\continuum\\anaconda3\\envs\\mark_gen_git\\lib\\_strptime.py',
   'PYMODULE'),
  ('calendar',
   'c:\\users\\z0044wmy\\appdata\\local\\continuum\\anaconda3\\envs\\mark_gen_git\\lib\\calendar.py',
   'PYMODULE'),
  ('argparse',
   'c:\\users\\z0044wmy\\appdata\\local\\continuum\\anaconda3\\envs\\mark_gen_git\\lib\\argparse.py',
   'PYMODULE'),
  ('textwrap',
   'c:\\users\\z0044wmy\\appdata\\local\\continuum\\anaconda3\\envs\\mark_gen_git\\lib\\textwrap.py',
   'PYMODULE'),
  ('copy',
   'c:\\users\\z0044wmy\\appdata\\local\\continuum\\anaconda3\\envs\\mark_gen_git\\lib\\copy.py',
   'PYMODULE'),
  ('gettext',
   'c:\\users\\z0044wmy\\appdata\\local\\continuum\\anaconda3\\envs\\mark_gen_git\\lib\\gettext.py',
   'PYMODULE'),
  ('struct',
   'c:\\users\\z0044wmy\\appdata\\local\\continuum\\anaconda3\\envs\\mark_gen_git\\lib\\struct.py',
   'PYMODULE'),
  ('ntpath',
   'c:\\users\\z0044wmy\\appdata\\local\\continuum\\anaconda3\\envs\\mark_gen_git\\lib\\ntpath.py',
   'PYMODULE'),
  ('string',
   'c:\\users\\z0044wmy\\appdata\\local\\continuum\\anaconda3\\envs\\mark_gen_git\\lib\\string.py',
   'PYMODULE'),
  ('genericpath',
   'c:\\users\\z0044wmy\\appdata\\local\\continuum\\anaconda3\\envs\\mark_gen_git\\lib\\genericpath.py',
   'PYMODULE'),
  ('posixpath',
   'c:\\users\\z0044wmy\\appdata\\local\\continuum\\anaconda3\\envs\\mark_gen_git\\lib\\posixpath.py',
   'PYMODULE'),
  ('stat',
   'c:\\users\\z0044wmy\\appdata\\local\\continuum\\anaconda3\\envs\\mark_gen_git\\lib\\stat.py',
   'PYMODULE'),
  ('win32com',
   'c:\\users\\z0044wmy\\appdata\\local\\continuum\\anaconda3\\envs\\mark_gen_git\\lib\\site-packages\\win32com\\__init__.py',
   'PYMODULE'),
  ('win32com.server.util',
   'c:\\users\\z0044wmy\\appdata\\local\\continuum\\anaconda3\\envs\\mark_gen_git\\lib\\site-packages\\win32com\\server\\util.py',
   'PYMODULE'),
  ('win32com.server.dispatcher',
   'c:\\users\\z0044wmy\\appdata\\local\\continuum\\anaconda3\\envs\\mark_gen_git\\lib\\site-packages\\win32com\\server\\dispatcher.py',
   'PYMODULE'),
  ('win32traceutil',
   'c:\\users\\z0044wmy\\appdata\\local\\continuum\\anaconda3\\envs\\mark_gen_git\\lib\\site-packages\\win32\\lib\\win32traceutil.py',
   'PYMODULE'),
  ('win32com.util',
   'c:\\users\\z0044wmy\\appdata\\local\\continuum\\anaconda3\\envs\\mark_gen_git\\lib\\site-packages\\win32com\\util.py',
   'PYMODULE'),
  ('win32con',
   'c:\\users\\z0044wmy\\appdata\\local\\continuum\\anaconda3\\envs\\mark_gen_git\\lib\\site-packages\\win32\\lib\\win32con.py',
   'PYMODULE'),
  ('win32com.server.exception',
   'c:\\users\\z0044wmy\\appdata\\local\\continuum\\anaconda3\\envs\\mark_gen_git\\lib\\site-packages\\win32com\\server\\exception.py',
   'PYMODULE'),
  ('winerror',
   'c:\\users\\z0044wmy\\appdata\\local\\continuum\\anaconda3\\envs\\mark_gen_git\\lib\\site-packages\\win32\\lib\\winerror.py',
   'PYMODULE'),
  ('win32com.server.policy',
   'c:\\users\\z0044wmy\\appdata\\local\\continuum\\anaconda3\\envs\\mark_gen_git\\lib\\site-packages\\win32com\\server\\policy.py',
   'PYMODULE'),
  ('pywintypes',
   'c:\\users\\z0044wmy\\appdata\\local\\continuum\\anaconda3\\envs\\mark_gen_git\\lib\\site-packages\\win32\\lib\\pywintypes.py',
   'PYMODULE'),
  ('distutils.sysconfig',
   'c:\\users\\z0044wmy\\appdata\\local\\continuum\\anaconda3\\envs\\mark_gen_git\\lib\\distutils\\sysconfig.py',
   'PYMODULE'),
  ('distutils',
   'c:\\users\\z0044wmy\\appdata\\local\\continuum\\anaconda3\\envs\\mark_gen_git\\lib\\distutils\\__init__.py',
   'PYMODULE'),
  ('distutils.log',
   'c:\\users\\z0044wmy\\appdata\\local\\continuum\\anaconda3\\envs\\mark_gen_git\\lib\\distutils\\log.py',
   'PYMODULE'),
  ('distutils.text_file',
   'c:\\users\\z0044wmy\\appdata\\local\\continuum\\anaconda3\\envs\\mark_gen_git\\lib\\distutils\\text_file.py',
   'PYMODULE'),
  ('_osx_support',
   'c:\\users\\z0044wmy\\appdata\\local\\continuum\\anaconda3\\envs\\mark_gen_git\\lib\\_osx_support.py',
   'PYMODULE'),
  ('distutils.errors',
   'c:\\users\\z0044wmy\\appdata\\local\\continuum\\anaconda3\\envs\\mark_gen_git\\lib\\distutils\\errors.py',
   'PYMODULE'),
  ('win32com.server',
   'c:\\users\\z0044wmy\\appdata\\local\\continuum\\anaconda3\\envs\\mark_gen_git\\lib\\site-packages\\win32com\\server\\__init__.py',
   'PYMODULE'),
  ('win32com.universal',
   'c:\\users\\z0044wmy\\appdata\\local\\continuum\\anaconda3\\envs\\mark_gen_git\\lib\\site-packages\\win32com\\universal.py',
   'PYMODULE'),
  ('win32com.client.build',
   'c:\\users\\z0044wmy\\appdata\\local\\continuum\\anaconda3\\envs\\mark_gen_git\\lib\\site-packages\\win32com\\client\\build.py',
   'PYMODULE'),
  ('win32com.client.gencache',
   'c:\\users\\z0044wmy\\appdata\\local\\continuum\\anaconda3\\envs\\mark_gen_git\\lib\\site-packages\\win32com\\client\\gencache.py',
   'PYMODULE'),
  ('getopt',
   'c:\\users\\z0044wmy\\appdata\\local\\continuum\\anaconda3\\envs\\mark_gen_git\\lib\\getopt.py',
   'PYMODULE'),
  ('zipfile',
   'c:\\users\\z0044wmy\\appdata\\local\\continuum\\anaconda3\\envs\\mark_gen_git\\lib\\zipfile.py',
   'PYMODULE'),
  ('py_compile',
   'c:\\users\\z0044wmy\\appdata\\local\\continuum\\anaconda3\\envs\\mark_gen_git\\lib\\py_compile.py',
   'PYMODULE'),
  ('importlib.machinery',
   'c:\\users\\z0044wmy\\appdata\\local\\continuum\\anaconda3\\envs\\mark_gen_git\\lib\\importlib\\machinery.py',
   'PYMODULE'),
  ('importlib',
   'c:\\users\\z0044wmy\\appdata\\local\\continuum\\anaconda3\\envs\\mark_gen_git\\lib\\importlib\\__init__.py',
   'PYMODULE'),
  ('importlib.abc',
   'c:\\users\\z0044wmy\\appdata\\local\\continuum\\anaconda3\\envs\\mark_gen_git\\lib\\importlib\\abc.py',
   'PYMODULE'),
  ('importlib._bootstrap',
   'c:\\users\\z0044wmy\\appdata\\local\\continuum\\anaconda3\\envs\\mark_gen_git\\lib\\importlib\\_bootstrap.py',
   'PYMODULE'),
  ('importlib._bootstrap_external',
   'c:\\users\\z0044wmy\\appdata\\local\\continuum\\anaconda3\\envs\\mark_gen_git\\lib\\importlib\\_bootstrap_external.py',
   'PYMODULE'),
  ('tokenize',
   'c:\\users\\z0044wmy\\appdata\\local\\continuum\\anaconda3\\envs\\mark_gen_git\\lib\\tokenize.py',
   'PYMODULE'),
  ('token',
   'c:\\users\\z0044wmy\\appdata\\local\\continuum\\anaconda3\\envs\\mark_gen_git\\lib\\token.py',
   'PYMODULE'),
  ('lzma',
   'c:\\users\\z0044wmy\\appdata\\local\\continuum\\anaconda3\\envs\\mark_gen_git\\lib\\lzma.py',
   'PYMODULE'),
  ('_compression',
   'c:\\users\\z0044wmy\\appdata\\local\\continuum\\anaconda3\\envs\\mark_gen_git\\lib\\_compression.py',
   'PYMODULE'),
  ('bz2',
   'c:\\users\\z0044wmy\\appdata\\local\\continuum\\anaconda3\\envs\\mark_gen_git\\lib\\bz2.py',
   'PYMODULE'),
  ('importlib.util',
   'c:\\users\\z0044wmy\\appdata\\local\\continuum\\anaconda3\\envs\\mark_gen_git\\lib\\importlib\\util.py',
   'PYMODULE'),
  ('win32com.client.genpy',
   'c:\\users\\z0044wmy\\appdata\\local\\continuum\\anaconda3\\envs\\mark_gen_git\\lib\\site-packages\\win32com\\client\\genpy.py',
   'PYMODULE'),
  ('win32com.client.makepy',
   'c:\\users\\z0044wmy\\appdata\\local\\continuum\\anaconda3\\envs\\mark_gen_git\\lib\\site-packages\\win32com\\client\\makepy.py',
   'PYMODULE'),
  ('pywin.dialogs.status',
   'c:\\users\\z0044wmy\\appdata\\local\\continuum\\anaconda3\\envs\\mark_gen_git\\lib\\site-packages\\Pythonwin\\pywin\\dialogs\\status.py',
   'PYMODULE'),
  ('pywin.mfc.thread',
   'c:\\users\\z0044wmy\\appdata\\local\\continuum\\anaconda3\\envs\\mark_gen_git\\lib\\site-packages\\Pythonwin\\pywin\\mfc\\thread.py',
   'PYMODULE'),
  ('pywin.mfc.object',
   'c:\\users\\z0044wmy\\appdata\\local\\continuum\\anaconda3\\envs\\mark_gen_git\\lib\\site-packages\\Pythonwin\\pywin\\mfc\\object.py',
   'PYMODULE'),
  ('pywin.mfc.dialog',
   'c:\\users\\z0044wmy\\appdata\\local\\continuum\\anaconda3\\envs\\mark_gen_git\\lib\\site-packages\\Pythonwin\\pywin\\mfc\\dialog.py',
   'PYMODULE'),
  ('pywin.mfc.window',
   'c:\\users\\z0044wmy\\appdata\\local\\continuum\\anaconda3\\envs\\mark_gen_git\\lib\\site-packages\\Pythonwin\\pywin\\mfc\\window.py',
   'PYMODULE'),
  ('pywin.mfc',
   'c:\\users\\z0044wmy\\appdata\\local\\continuum\\anaconda3\\envs\\mark_gen_git\\lib\\site-packages\\Pythonwin\\pywin\\mfc\\__init__.py',
   'PYMODULE'),
  ('pywin.dialogs',
   'c:\\users\\z0044wmy\\appdata\\local\\continuum\\anaconda3\\envs\\mark_gen_git\\lib\\site-packages\\Pythonwin\\pywin\\dialogs\\__init__.py',
   'PYMODULE'),
  ('pywin',
   'c:\\users\\z0044wmy\\appdata\\local\\continuum\\anaconda3\\envs\\mark_gen_git\\lib\\site-packages\\Pythonwin\\pywin\\__init__.py',
   'PYMODULE'),
  ('win32com.client.selecttlb',
   'c:\\users\\z0044wmy\\appdata\\local\\continuum\\anaconda3\\envs\\mark_gen_git\\lib\\site-packages\\win32com\\client\\selecttlb.py',
   'PYMODULE'),
  ('pywin.dialogs.list',
   'c:\\users\\z0044wmy\\appdata\\local\\continuum\\anaconda3\\envs\\mark_gen_git\\lib\\site-packages\\Pythonwin\\pywin\\dialogs\\list.py',
   'PYMODULE'),
  ('commctrl',
   'c:\\users\\z0044wmy\\appdata\\local\\continuum\\anaconda3\\envs\\mark_gen_git\\lib\\site-packages\\win32\\lib\\commctrl.py',
   'PYMODULE'),
  ('pickle',
   'c:\\users\\z0044wmy\\appdata\\local\\continuum\\anaconda3\\envs\\mark_gen_git\\lib\\pickle.py',
   'PYMODULE'),
  ('pprint',
   'c:\\users\\z0044wmy\\appdata\\local\\continuum\\anaconda3\\envs\\mark_gen_git\\lib\\pprint.py',
   'PYMODULE'),
  ('doctest',
   'c:\\users\\z0044wmy\\appdata\\local\\continuum\\anaconda3\\envs\\mark_gen_git\\lib\\doctest.py',
   'PYMODULE'),
  ('unittest',
   'c:\\users\\z0044wmy\\appdata\\local\\continuum\\anaconda3\\envs\\mark_gen_git\\lib\\unittest\\__init__.py',
   'PYMODULE'),
  ('unittest.signals',
   'c:\\users\\z0044wmy\\appdata\\local\\continuum\\anaconda3\\envs\\mark_gen_git\\lib\\unittest\\signals.py',
   'PYMODULE'),
  ('unittest.main',
   'c:\\users\\z0044wmy\\appdata\\local\\continuum\\anaconda3\\envs\\mark_gen_git\\lib\\unittest\\main.py',
   'PYMODULE'),
  ('unittest.runner',
   'c:\\users\\z0044wmy\\appdata\\local\\continuum\\anaconda3\\envs\\mark_gen_git\\lib\\unittest\\runner.py',
   'PYMODULE'),
  ('unittest.loader',
   'c:\\users\\z0044wmy\\appdata\\local\\continuum\\anaconda3\\envs\\mark_gen_git\\lib\\unittest\\loader.py',
   'PYMODULE'),
  ('fnmatch',
   'c:\\users\\z0044wmy\\appdata\\local\\continuum\\anaconda3\\envs\\mark_gen_git\\lib\\fnmatch.py',
   'PYMODULE'),
  ('unittest.suite',
   'c:\\users\\z0044wmy\\appdata\\local\\continuum\\anaconda3\\envs\\mark_gen_git\\lib\\unittest\\suite.py',
   'PYMODULE'),
  ('unittest.case',
   'c:\\users\\z0044wmy\\appdata\\local\\continuum\\anaconda3\\envs\\mark_gen_git\\lib\\unittest\\case.py',
   'PYMODULE'),
  ('unittest.result',
   'c:\\users\\z0044wmy\\appdata\\local\\continuum\\anaconda3\\envs\\mark_gen_git\\lib\\unittest\\result.py',
   'PYMODULE'),
  ('unittest.util',
   'c:\\users\\z0044wmy\\appdata\\local\\continuum\\anaconda3\\envs\\mark_gen_git\\lib\\unittest\\util.py',
   'PYMODULE'),
  ('pdb',
   'c:\\users\\z0044wmy\\appdata\\local\\continuum\\anaconda3\\envs\\mark_gen_git\\lib\\pdb.py',
   'PYMODULE'),
  ('pydoc',
   'c:\\users\\z0044wmy\\appdata\\local\\continuum\\anaconda3\\envs\\mark_gen_git\\lib\\pydoc.py',
   'PYMODULE'),
  ('webbrowser',
   'c:\\users\\z0044wmy\\appdata\\local\\continuum\\anaconda3\\envs\\mark_gen_git\\lib\\webbrowser.py',
   'PYMODULE'),
  ('socket',
   'c:\\users\\z0044wmy\\appdata\\local\\continuum\\anaconda3\\envs\\mark_gen_git\\lib\\socket.py',
   'PYMODULE'),
  ('email.message',
   'c:\\users\\z0044wmy\\appdata\\local\\continuum\\anaconda3\\envs\\mark_gen_git\\lib\\email\\message.py',
   'PYMODULE'),
  ('email.policy',
   'c:\\users\\z0044wmy\\appdata\\local\\continuum\\anaconda3\\envs\\mark_gen_git\\lib\\email\\policy.py',
   'PYMODULE'),
  ('email.contentmanager',
   'c:\\users\\z0044wmy\\appdata\\local\\continuum\\anaconda3\\envs\\mark_gen_git\\lib\\email\\contentmanager.py',
   'PYMODULE'),
  ('email.quoprimime',
   'c:\\users\\z0044wmy\\appdata\\local\\continuum\\anaconda3\\envs\\mark_gen_git\\lib\\email\\quoprimime.py',
   'PYMODULE'),
  ('email.headerregistry',
   'c:\\users\\z0044wmy\\appdata\\local\\continuum\\anaconda3\\envs\\mark_gen_git\\lib\\email\\headerregistry.py',
   'PYMODULE'),
  ('email._header_value_parser',
   'c:\\users\\z0044wmy\\appdata\\local\\continuum\\anaconda3\\envs\\mark_gen_git\\lib\\email\\_header_value_parser.py',
   'PYMODULE'),
  ('urllib',
   'c:\\users\\z0044wmy\\appdata\\local\\continuum\\anaconda3\\envs\\mark_gen_git\\lib\\urllib\\__init__.py',
   'PYMODULE'),
  ('email.iterators',
   'c:\\users\\z0044wmy\\appdata\\local\\continuum\\anaconda3\\envs\\mark_gen_git\\lib\\email\\iterators.py',
   'PYMODULE'),
  ('email.generator',
   'c:\\users\\z0044wmy\\appdata\\local\\continuum\\anaconda3\\envs\\mark_gen_git\\lib\\email\\generator.py',
   'PYMODULE'),
  ('random',
   'c:\\users\\z0044wmy\\appdata\\local\\continuum\\anaconda3\\envs\\mark_gen_git\\lib\\random.py',
   'PYMODULE'),
  ('bisect',
   'c:\\users\\z0044wmy\\appdata\\local\\continuum\\anaconda3\\envs\\mark_gen_git\\lib\\bisect.py',
   'PYMODULE'),
  ('hashlib',
   'c:\\users\\z0044wmy\\appdata\\local\\continuum\\anaconda3\\envs\\mark_gen_git\\lib\\hashlib.py',
   'PYMODULE'),
  ('email._encoded_words',
   'c:\\users\\z0044wmy\\appdata\\local\\continuum\\anaconda3\\envs\\mark_gen_git\\lib\\email\\_encoded_words.py',
   'PYMODULE'),
  ('base64',
   'c:\\users\\z0044wmy\\appdata\\local\\continuum\\anaconda3\\envs\\mark_gen_git\\lib\\base64.py',
   'PYMODULE'),
  ('email.charset',
   'c:\\users\\z0044wmy\\appdata\\local\\continuum\\anaconda3\\envs\\mark_gen_git\\lib\\email\\charset.py',
   'PYMODULE'),
  ('email.encoders',
   'c:\\users\\z0044wmy\\appdata\\local\\continuum\\anaconda3\\envs\\mark_gen_git\\lib\\email\\encoders.py',
   'PYMODULE'),
  ('email.base64mime',
   'c:\\users\\z0044wmy\\appdata\\local\\continuum\\anaconda3\\envs\\mark_gen_git\\lib\\email\\base64mime.py',
   'PYMODULE'),
  ('email._policybase',
   'c:\\users\\z0044wmy\\appdata\\local\\continuum\\anaconda3\\envs\\mark_gen_git\\lib\\email\\_policybase.py',
   'PYMODULE'),
  ('email.header',
   'c:\\users\\z0044wmy\\appdata\\local\\continuum\\anaconda3\\envs\\mark_gen_git\\lib\\email\\header.py',
   'PYMODULE'),
  ('email.errors',
   'c:\\users\\z0044wmy\\appdata\\local\\continuum\\anaconda3\\envs\\mark_gen_git\\lib\\email\\errors.py',
   'PYMODULE'),
  ('email.utils',
   'c:\\users\\z0044wmy\\appdata\\local\\continuum\\anaconda3\\envs\\mark_gen_git\\lib\\email\\utils.py',
   'PYMODULE'),
  ('email._parseaddr',
   'c:\\users\\z0044wmy\\appdata\\local\\continuum\\anaconda3\\envs\\mark_gen_git\\lib\\email\\_parseaddr.py',
   'PYMODULE'),
  ('email',
   'c:\\users\\z0044wmy\\appdata\\local\\continuum\\anaconda3\\envs\\mark_gen_git\\lib\\email\\__init__.py',
   'PYMODULE'),
  ('email.parser',
   'c:\\users\\z0044wmy\\appdata\\local\\continuum\\anaconda3\\envs\\mark_gen_git\\lib\\email\\parser.py',
   'PYMODULE'),
  ('email.feedparser',
   'c:\\users\\z0044wmy\\appdata\\local\\continuum\\anaconda3\\envs\\mark_gen_git\\lib\\email\\feedparser.py',
   'PYMODULE'),
  ('quopri',
   'c:\\users\\z0044wmy\\appdata\\local\\continuum\\anaconda3\\envs\\mark_gen_git\\lib\\quopri.py',
   'PYMODULE'),
  ('uu',
   'c:\\users\\z0044wmy\\appdata\\local\\continuum\\anaconda3\\envs\\mark_gen_git\\lib\\uu.py',
   'PYMODULE'),
  ('optparse',
   'c:\\users\\z0044wmy\\appdata\\local\\continuum\\anaconda3\\envs\\mark_gen_git\\lib\\optparse.py',
   'PYMODULE'),
  ('http.server',
   'c:\\users\\z0044wmy\\appdata\\local\\continuum\\anaconda3\\envs\\mark_gen_git\\lib\\http\\server.py',
   'PYMODULE'),
  ('http',
   'c:\\users\\z0044wmy\\appdata\\local\\continuum\\anaconda3\\envs\\mark_gen_git\\lib\\http\\__init__.py',
   'PYMODULE'),
  ('socketserver',
   'c:\\users\\z0044wmy\\appdata\\local\\continuum\\anaconda3\\envs\\mark_gen_git\\lib\\socketserver.py',
   'PYMODULE'),
  ('mimetypes',
   'c:\\users\\z0044wmy\\appdata\\local\\continuum\\anaconda3\\envs\\mark_gen_git\\lib\\mimetypes.py',
   'PYMODULE'),
  ('http.client',
   'c:\\users\\z0044wmy\\appdata\\local\\continuum\\anaconda3\\envs\\mark_gen_git\\lib\\http\\client.py',
   'PYMODULE'),
  ('ssl',
   'c:\\users\\z0044wmy\\appdata\\local\\continuum\\anaconda3\\envs\\mark_gen_git\\lib\\ssl.py',
   'PYMODULE'),
  ('html',
   'c:\\users\\z0044wmy\\appdata\\local\\continuum\\anaconda3\\envs\\mark_gen_git\\lib\\html\\__init__.py',
   'PYMODULE'),
  ('html.entities',
   'c:\\users\\z0044wmy\\appdata\\local\\continuum\\anaconda3\\envs\\mark_gen_git\\lib\\html\\entities.py',
   'PYMODULE'),
  ('pydoc_data.topics',
   'c:\\users\\z0044wmy\\appdata\\local\\continuum\\anaconda3\\envs\\mark_gen_git\\lib\\pydoc_data\\topics.py',
   'PYMODULE'),
  ('pydoc_data',
   'c:\\users\\z0044wmy\\appdata\\local\\continuum\\anaconda3\\envs\\mark_gen_git\\lib\\pydoc_data\\__init__.py',
   'PYMODULE'),
  ('tty',
   'c:\\users\\z0044wmy\\appdata\\local\\continuum\\anaconda3\\envs\\mark_gen_git\\lib\\tty.py',
   'PYMODULE'),
  ('urllib.parse',
   'c:\\users\\z0044wmy\\appdata\\local\\continuum\\anaconda3\\envs\\mark_gen_git\\lib\\urllib\\parse.py',
   'PYMODULE'),
  ('sysconfig',
   'c:\\users\\z0044wmy\\appdata\\local\\continuum\\anaconda3\\envs\\mark_gen_git\\lib\\sysconfig.py',
   'PYMODULE'),
  ('platform',
   'c:\\users\\z0044wmy\\appdata\\local\\continuum\\anaconda3\\envs\\mark_gen_git\\lib\\platform.py',
   'PYMODULE'),
  ('plistlib',
   'c:\\users\\z0044wmy\\appdata\\local\\continuum\\anaconda3\\envs\\mark_gen_git\\lib\\plistlib.py',
   'PYMODULE'),
  ('xml.parsers.expat',
   'c:\\users\\z0044wmy\\appdata\\local\\continuum\\anaconda3\\envs\\mark_gen_git\\lib\\xml\\parsers\\expat.py',
   'PYMODULE'),
  ('xml.parsers',
   'c:\\users\\z0044wmy\\appdata\\local\\continuum\\anaconda3\\envs\\mark_gen_git\\lib\\xml\\parsers\\__init__.py',
   'PYMODULE'),
  ('xml',
   'c:\\users\\z0044wmy\\appdata\\local\\continuum\\anaconda3\\envs\\mark_gen_git\\lib\\xml\\__init__.py',
   'PYMODULE'),
  ('xml.sax.expatreader',
   'c:\\users\\z0044wmy\\appdata\\local\\continuum\\anaconda3\\envs\\mark_gen_git\\lib\\xml\\sax\\expatreader.py',
   'PYMODULE'),
  ('xml.sax.saxutils',
   'c:\\users\\z0044wmy\\appdata\\local\\continuum\\anaconda3\\envs\\mark_gen_git\\lib\\xml\\sax\\saxutils.py',
   'PYMODULE'),
  ('urllib.request',
   'c:\\users\\z0044wmy\\appdata\\local\\continuum\\anaconda3\\envs\\mark_gen_git\\lib\\urllib\\request.py',
   'PYMODULE'),
  ('getpass',
   'c:\\users\\z0044wmy\\appdata\\local\\continuum\\anaconda3\\envs\\mark_gen_git\\lib\\getpass.py',
   'PYMODULE'),
  ('nturl2path',
   'c:\\users\\z0044wmy\\appdata\\local\\continuum\\anaconda3\\envs\\mark_gen_git\\lib\\nturl2path.py',
   'PYMODULE'),
  ('ftplib',
   'c:\\users\\z0044wmy\\appdata\\local\\continuum\\anaconda3\\envs\\mark_gen_git\\lib\\ftplib.py',
   'PYMODULE'),
  ('netrc',
   'c:\\users\\z0044wmy\\appdata\\local\\continuum\\anaconda3\\envs\\mark_gen_git\\lib\\netrc.py',
   'PYMODULE'),
  ('http.cookiejar',
   'c:\\users\\z0044wmy\\appdata\\local\\continuum\\anaconda3\\envs\\mark_gen_git\\lib\\http\\cookiejar.py',
   'PYMODULE'),
  ('urllib.response',
   'c:\\users\\z0044wmy\\appdata\\local\\continuum\\anaconda3\\envs\\mark_gen_git\\lib\\urllib\\response.py',
   'PYMODULE'),
  ('urllib.error',
   'c:\\users\\z0044wmy\\appdata\\local\\continuum\\anaconda3\\envs\\mark_gen_git\\lib\\urllib\\error.py',
   'PYMODULE'),
  ('xml.sax',
   'c:\\users\\z0044wmy\\appdata\\local\\continuum\\anaconda3\\envs\\mark_gen_git\\lib\\xml\\sax\\__init__.py',
   'PYMODULE'),
  ('xml.sax.handler',
   'c:\\users\\z0044wmy\\appdata\\local\\continuum\\anaconda3\\envs\\mark_gen_git\\lib\\xml\\sax\\handler.py',
   'PYMODULE'),
  ('xml.sax._exceptions',
   'c:\\users\\z0044wmy\\appdata\\local\\continuum\\anaconda3\\envs\\mark_gen_git\\lib\\xml\\sax\\_exceptions.py',
   'PYMODULE'),
  ('xml.sax.xmlreader',
   'c:\\users\\z0044wmy\\appdata\\local\\continuum\\anaconda3\\envs\\mark_gen_git\\lib\\xml\\sax\\xmlreader.py',
   'PYMODULE'),
  ('pkgutil',
   'c:\\users\\z0044wmy\\appdata\\local\\continuum\\anaconda3\\envs\\mark_gen_git\\lib\\pkgutil.py',
   'PYMODULE'),
  ('runpy',
   'c:\\users\\z0044wmy\\appdata\\local\\continuum\\anaconda3\\envs\\mark_gen_git\\lib\\runpy.py',
   'PYMODULE'),
  ('shlex',
   'c:\\users\\z0044wmy\\appdata\\local\\continuum\\anaconda3\\envs\\mark_gen_git\\lib\\shlex.py',
   'PYMODULE'),
  ('code',
   'c:\\users\\z0044wmy\\appdata\\local\\continuum\\anaconda3\\envs\\mark_gen_git\\lib\\code.py',
   'PYMODULE'),
  ('codeop',
   'c:\\users\\z0044wmy\\appdata\\local\\continuum\\anaconda3\\envs\\mark_gen_git\\lib\\codeop.py',
   'PYMODULE'),
  ('dis',
   'c:\\users\\z0044wmy\\appdata\\local\\continuum\\anaconda3\\envs\\mark_gen_git\\lib\\dis.py',
   'PYMODULE'),
  ('opcode',
   'c:\\users\\z0044wmy\\appdata\\local\\continuum\\anaconda3\\envs\\mark_gen_git\\lib\\opcode.py',
   'PYMODULE'),
  ('bdb',
   'c:\\users\\z0044wmy\\appdata\\local\\continuum\\anaconda3\\envs\\mark_gen_git\\lib\\bdb.py',
   'PYMODULE'),
  ('cmd',
   'c:\\users\\z0044wmy\\appdata\\local\\continuum\\anaconda3\\envs\\mark_gen_git\\lib\\cmd.py',
   'PYMODULE'),
  ('inspect',
   'c:\\users\\z0044wmy\\appdata\\local\\continuum\\anaconda3\\envs\\mark_gen_git\\lib\\inspect.py',
   'PYMODULE'),
  ('ast',
   'c:\\users\\z0044wmy\\appdata\\local\\continuum\\anaconda3\\envs\\mark_gen_git\\lib\\ast.py',
   'PYMODULE'),
  ('difflib',
   'c:\\users\\z0044wmy\\appdata\\local\\continuum\\anaconda3\\envs\\mark_gen_git\\lib\\difflib.py',
   'PYMODULE'),
  ('__future__',
   'c:\\users\\z0044wmy\\appdata\\local\\continuum\\anaconda3\\envs\\mark_gen_git\\lib\\__future__.py',
   'PYMODULE'),
  ('_compat_pickle',
   'c:\\users\\z0044wmy\\appdata\\local\\continuum\\anaconda3\\envs\\mark_gen_git\\lib\\_compat_pickle.py',
   'PYMODULE'),
  ('win32com.client.CLSIDToClass',
   'c:\\users\\z0044wmy\\appdata\\local\\continuum\\anaconda3\\envs\\mark_gen_git\\lib\\site-packages\\win32com\\client\\CLSIDToClass.py',
   'PYMODULE'),
  ('glob',
   'c:\\users\\z0044wmy\\appdata\\local\\continuum\\anaconda3\\envs\\mark_gen_git\\lib\\glob.py',
   'PYMODULE'),
  ('win32com.client.util',
   'c:\\users\\z0044wmy\\appdata\\local\\continuum\\anaconda3\\envs\\mark_gen_git\\lib\\site-packages\\win32com\\client\\util.py',
   'PYMODULE'),
  ('imp',
   'c:\\users\\z0044wmy\\appdata\\local\\continuum\\anaconda3\\envs\\mark_gen_git\\lib\\imp.py',
   'PYMODULE'),
  ('pythoncom',
   'c:\\users\\z0044wmy\\appdata\\local\\continuum\\anaconda3\\envs\\mark_gen_git\\lib\\site-packages\\pythoncom.py',
   'PYMODULE'),
  ('tempfile',
   'c:\\users\\z0044wmy\\appdata\\local\\continuum\\anaconda3\\envs\\mark_gen_git\\lib\\tempfile.py',
   'PYMODULE'),
  ('shutil',
   'c:\\users\\z0044wmy\\appdata\\local\\continuum\\anaconda3\\envs\\mark_gen_git\\lib\\shutil.py',
   'PYMODULE'),
  ('tarfile',
   'c:\\users\\z0044wmy\\appdata\\local\\continuum\\anaconda3\\envs\\mark_gen_git\\lib\\tarfile.py',
   'PYMODULE'),
  ('gzip',
   'c:\\users\\z0044wmy\\appdata\\local\\continuum\\anaconda3\\envs\\mark_gen_git\\lib\\gzip.py',
   'PYMODULE'),
  ('tracemalloc',
   'c:\\users\\z0044wmy\\appdata\\local\\continuum\\anaconda3\\envs\\mark_gen_git\\lib\\tracemalloc.py',
   'PYMODULE'),
  ('stringprep',
   'c:\\users\\z0044wmy\\appdata\\local\\continuum\\anaconda3\\envs\\mark_gen_git\\lib\\stringprep.py',
   'PYMODULE'),
  ('_py_abc',
   'c:\\users\\z0044wmy\\appdata\\local\\continuum\\anaconda3\\envs\\mark_gen_git\\lib\\_py_abc.py',
   'PYMODULE'),
  ('typing',
   'c:\\users\\z0044wmy\\appdata\\local\\continuum\\anaconda3\\envs\\mark_gen_git\\lib\\typing.py',
   'PYMODULE'),
  ('pathlib',
   'c:\\users\\z0044wmy\\appdata\\local\\continuum\\anaconda3\\envs\\mark_gen_git\\lib\\pathlib.py',
   'PYMODULE'),
  ('win32com.client',
   'c:\\users\\z0044wmy\\appdata\\local\\continuum\\anaconda3\\envs\\mark_gen_git\\lib\\site-packages\\win32com\\client\\__init__.py',
   'PYMODULE'),
  ('win32com.client.dynamic',
   'c:\\users\\z0044wmy\\appdata\\local\\continuum\\anaconda3\\envs\\mark_gen_git\\lib\\site-packages\\win32com\\client\\dynamic.py',
   'PYMODULE'),
  ('logging',
   'c:\\users\\z0044wmy\\appdata\\local\\continuum\\anaconda3\\envs\\mark_gen_git\\lib\\logging\\__init__.py',
   'PYMODULE'),
  ('PyQt5',
   'c:\\users\\z0044wmy\\appdata\\local\\continuum\\anaconda3\\envs\\mark_gen_git\\lib\\site-packages\\PyQt5\\__init__.py',
   'PYMODULE'),
  ('openpyxl.styles.borders',
   'c:\\users\\z0044wmy\\appdata\\local\\continuum\\anaconda3\\envs\\mark_gen_git\\lib\\site-packages\\openpyxl\\styles\\borders.py',
   'PYMODULE'),
  ('openpyxl.styles',
   'c:\\users\\z0044wmy\\appdata\\local\\continuum\\anaconda3\\envs\\mark_gen_git\\lib\\site-packages\\openpyxl\\styles\\__init__.py',
   'PYMODULE'),
  ('openpyxl.styles.named_styles',
   'c:\\users\\z0044wmy\\appdata\\local\\continuum\\anaconda3\\envs\\mark_gen_git\\lib\\site-packages\\openpyxl\\styles\\named_styles.py',
   'PYMODULE'),
  ('openpyxl.styles.cell_style',
   'c:\\users\\z0044wmy\\appdata\\local\\continuum\\anaconda3\\envs\\mark_gen_git\\lib\\site-packages\\openpyxl\\styles\\cell_style.py',
   'PYMODULE'),
  ('openpyxl.utils.indexed_list',
   'c:\\users\\z0044wmy\\appdata\\local\\continuum\\anaconda3\\envs\\mark_gen_git\\lib\\site-packages\\openpyxl\\utils\\indexed_list.py',
   'PYMODULE'),
  ('openpyxl.utils',
   'c:\\users\\z0044wmy\\appdata\\local\\continuum\\anaconda3\\envs\\mark_gen_git\\lib\\site-packages\\openpyxl\\utils\\__init__.py',
   'PYMODULE'),
  ('openpyxl.utils.formulas',
   'c:\\users\\z0044wmy\\appdata\\local\\continuum\\anaconda3\\envs\\mark_gen_git\\lib\\site-packages\\openpyxl\\utils\\formulas.py',
   'PYMODULE'),
  ('openpyxl.utils.cell',
   'c:\\users\\z0044wmy\\appdata\\local\\continuum\\anaconda3\\envs\\mark_gen_git\\lib\\site-packages\\openpyxl\\utils\\cell.py',
   'PYMODULE'),
  ('openpyxl.utils.exceptions',
   'c:\\users\\z0044wmy\\appdata\\local\\continuum\\anaconda3\\envs\\mark_gen_git\\lib\\site-packages\\openpyxl\\utils\\exceptions.py',
   'PYMODULE'),
  ('openpyxl.descriptors.excel',
   'c:\\users\\z0044wmy\\appdata\\local\\continuum\\anaconda3\\envs\\mark_gen_git\\lib\\site-packages\\openpyxl\\descriptors\\excel.py',
   'PYMODULE'),
  ('openpyxl.xml.functions',
   'c:\\users\\z0044wmy\\appdata\\local\\continuum\\anaconda3\\envs\\mark_gen_git\\lib\\site-packages\\openpyxl\\xml\\functions.py',
   'PYMODULE'),
  ('openpyxl.xml',
   'c:\\users\\z0044wmy\\appdata\\local\\continuum\\anaconda3\\envs\\mark_gen_git\\lib\\site-packages\\openpyxl\\xml\\__init__.py',
   'PYMODULE'),
  ('et_xmlfile.xmlfile',
   'c:\\users\\z0044wmy\\appdata\\local\\continuum\\anaconda3\\envs\\mark_gen_git\\lib\\site-packages\\et_xmlfile\\xmlfile.py',
   'PYMODULE'),
  ('et_xmlfile',
   'c:\\users\\z0044wmy\\appdata\\local\\continuum\\anaconda3\\envs\\mark_gen_git\\lib\\site-packages\\et_xmlfile\\__init__.py',
   'PYMODULE'),
  ('xml.etree.ElementTree',
   'c:\\users\\z0044wmy\\appdata\\local\\continuum\\anaconda3\\envs\\mark_gen_git\\lib\\xml\\etree\\ElementTree.py',
   'PYMODULE'),
  ('xml.etree.cElementTree',
   'c:\\users\\z0044wmy\\appdata\\local\\continuum\\anaconda3\\envs\\mark_gen_git\\lib\\xml\\etree\\cElementTree.py',
   'PYMODULE'),
  ('xml.etree.ElementInclude',
   'c:\\users\\z0044wmy\\appdata\\local\\continuum\\anaconda3\\envs\\mark_gen_git\\lib\\xml\\etree\\ElementInclude.py',
   'PYMODULE'),
  ('xml.etree.ElementPath',
   'c:\\users\\z0044wmy\\appdata\\local\\continuum\\anaconda3\\envs\\mark_gen_git\\lib\\xml\\etree\\ElementPath.py',
   'PYMODULE'),
  ('xml.etree',
   'c:\\users\\z0044wmy\\appdata\\local\\continuum\\anaconda3\\envs\\mark_gen_git\\lib\\xml\\etree\\__init__.py',
   'PYMODULE'),
  ('lxml',
   'c:\\users\\z0044wmy\\appdata\\local\\continuum\\anaconda3\\envs\\mark_gen_git\\lib\\site-packages\\lxml\\__init__.py',
   'PYMODULE'),
  ('openpyxl.xml.constants',
   'c:\\users\\z0044wmy\\appdata\\local\\continuum\\anaconda3\\envs\\mark_gen_git\\lib\\site-packages\\openpyxl\\xml\\constants.py',
   'PYMODULE'),
  ('openpyxl.styles.protection',
   'c:\\users\\z0044wmy\\appdata\\local\\continuum\\anaconda3\\envs\\mark_gen_git\\lib\\site-packages\\openpyxl\\styles\\protection.py',
   'PYMODULE'),
  ('openpyxl.styles.numbers',
   'c:\\users\\z0044wmy\\appdata\\local\\continuum\\anaconda3\\envs\\mark_gen_git\\lib\\site-packages\\openpyxl\\styles\\numbers.py',
   'PYMODULE'),
  ('openpyxl.styles.fonts',
   'c:\\users\\z0044wmy\\appdata\\local\\continuum\\anaconda3\\envs\\mark_gen_git\\lib\\site-packages\\openpyxl\\styles\\fonts.py',
   'PYMODULE'),
  ('openpyxl.descriptors.nested',
   'c:\\users\\z0044wmy\\appdata\\local\\continuum\\anaconda3\\envs\\mark_gen_git\\lib\\site-packages\\openpyxl\\descriptors\\nested.py',
   'PYMODULE'),
  ('openpyxl.descriptors.sequence',
   'c:\\users\\z0044wmy\\appdata\\local\\continuum\\anaconda3\\envs\\mark_gen_git\\lib\\site-packages\\openpyxl\\descriptors\\sequence.py',
   'PYMODULE'),
  ('openpyxl.descriptors.namespace',
   'c:\\users\\z0044wmy\\appdata\\local\\continuum\\anaconda3\\envs\\mark_gen_git\\lib\\site-packages\\openpyxl\\descriptors\\namespace.py',
   'PYMODULE'),
  ('openpyxl.descriptors.base',
   'c:\\users\\z0044wmy\\appdata\\local\\continuum\\anaconda3\\envs\\mark_gen_git\\lib\\site-packages\\openpyxl\\descriptors\\base.py',
   'PYMODULE'),
  ('openpyxl.utils.datetime',
   'c:\\users\\z0044wmy\\appdata\\local\\continuum\\anaconda3\\envs\\mark_gen_git\\lib\\site-packages\\openpyxl\\utils\\datetime.py',
   'PYMODULE'),
  ('jdcal',
   'c:\\users\\z0044wmy\\appdata\\local\\continuum\\anaconda3\\envs\\mark_gen_git\\lib\\site-packages\\jdcal.py',
   'PYMODULE'),
  ('openpyxl.styles.fills',
   'c:\\users\\z0044wmy\\appdata\\local\\continuum\\anaconda3\\envs\\mark_gen_git\\lib\\site-packages\\openpyxl\\styles\\fills.py',
   'PYMODULE'),
  ('openpyxl.styles.alignment',
   'c:\\users\\z0044wmy\\appdata\\local\\continuum\\anaconda3\\envs\\mark_gen_git\\lib\\site-packages\\openpyxl\\styles\\alignment.py',
   'PYMODULE'),
  ('openpyxl.styles.colors',
   'c:\\users\\z0044wmy\\appdata\\local\\continuum\\anaconda3\\envs\\mark_gen_git\\lib\\site-packages\\openpyxl\\styles\\colors.py',
   'PYMODULE'),
  ('openpyxl.descriptors.serialisable',
   'c:\\users\\z0044wmy\\appdata\\local\\continuum\\anaconda3\\envs\\mark_gen_git\\lib\\site-packages\\openpyxl\\descriptors\\serialisable.py',
   'PYMODULE'),
  ('openpyxl.descriptors',
   'c:\\users\\z0044wmy\\appdata\\local\\continuum\\anaconda3\\envs\\mark_gen_git\\lib\\site-packages\\openpyxl\\descriptors\\__init__.py',
   'PYMODULE'),
  ('openpyxl.compat',
   'c:\\users\\z0044wmy\\appdata\\local\\continuum\\anaconda3\\envs\\mark_gen_git\\lib\\site-packages\\openpyxl\\compat\\__init__.py',
   'PYMODULE'),
  ('openpyxl.compat.strings',
   'c:\\users\\z0044wmy\\appdata\\local\\continuum\\anaconda3\\envs\\mark_gen_git\\lib\\site-packages\\openpyxl\\compat\\strings.py',
   'PYMODULE'),
  ('openpyxl.compat.numbers',
   'c:\\users\\z0044wmy\\appdata\\local\\continuum\\anaconda3\\envs\\mark_gen_git\\lib\\site-packages\\openpyxl\\compat\\numbers.py',
   'PYMODULE'),
  ('decimal',
   'c:\\users\\z0044wmy\\appdata\\local\\continuum\\anaconda3\\envs\\mark_gen_git\\lib\\decimal.py',
   'PYMODULE'),
  ('_pydecimal',
   'c:\\users\\z0044wmy\\appdata\\local\\continuum\\anaconda3\\envs\\mark_gen_git\\lib\\_pydecimal.py',
   'PYMODULE'),
  ('contextvars',
   'c:\\users\\z0044wmy\\appdata\\local\\continuum\\anaconda3\\envs\\mark_gen_git\\lib\\contextvars.py',
   'PYMODULE'),
  ('numbers',
   'c:\\users\\z0044wmy\\appdata\\local\\continuum\\anaconda3\\envs\\mark_gen_git\\lib\\numbers.py',
   'PYMODULE'),
  ('datetime',
   'c:\\users\\z0044wmy\\appdata\\local\\continuum\\anaconda3\\envs\\mark_gen_git\\lib\\datetime.py',
   'PYMODULE'),
  ('docx',
   'c:\\users\\z0044wmy\\appdata\\local\\continuum\\anaconda3\\envs\\mark_gen_git\\lib\\site-packages\\docx\\__init__.py',
   'PYMODULE'),
  ('docx.parts.styles',
   'c:\\users\\z0044wmy\\appdata\\local\\continuum\\anaconda3\\envs\\mark_gen_git\\lib\\site-packages\\docx\\parts\\styles.py',
   'PYMODULE'),
  ('docx.parts',
   'c:\\users\\z0044wmy\\appdata\\local\\continuum\\anaconda3\\envs\\mark_gen_git\\lib\\site-packages\\docx\\parts\\__init__.py',
   'PYMODULE'),
  ('docx.styles.styles',
   'c:\\users\\z0044wmy\\appdata\\local\\continuum\\anaconda3\\envs\\mark_gen_git\\lib\\site-packages\\docx\\styles\\styles.py',
   'PYMODULE'),
  ('docx.styles.style',
   'c:\\users\\z0044wmy\\appdata\\local\\continuum\\anaconda3\\envs\\mark_gen_git\\lib\\site-packages\\docx\\styles\\style.py',
   'PYMODULE'),
  ('docx.text.parfmt',
   'c:\\users\\z0044wmy\\appdata\\local\\continuum\\anaconda3\\envs\\mark_gen_git\\lib\\site-packages\\docx\\text\\parfmt.py',
   'PYMODULE'),
  ('docx.text',
   'c:\\users\\z0044wmy\\appdata\\local\\continuum\\anaconda3\\envs\\mark_gen_git\\lib\\site-packages\\docx\\text\\__init__.py',
   'PYMODULE'),
  ('docx.text.tabstops',
   'c:\\users\\z0044wmy\\appdata\\local\\continuum\\anaconda3\\envs\\mark_gen_git\\lib\\site-packages\\docx\\text\\tabstops.py',
   'PYMODULE'),
  ('docx.enum.text',
   'c:\\users\\z0044wmy\\appdata\\local\\continuum\\anaconda3\\envs\\mark_gen_git\\lib\\site-packages\\docx\\enum\\text.py',
   'PYMODULE'),
  ('docx.enum',
   'c:\\users\\z0044wmy\\appdata\\local\\continuum\\anaconda3\\envs\\mark_gen_git\\lib\\site-packages\\docx\\enum\\__init__.py',
   'PYMODULE'),
  ('docx.enum.base',
   'c:\\users\\z0044wmy\\appdata\\local\\continuum\\anaconda3\\envs\\mark_gen_git\\lib\\site-packages\\docx\\enum\\base.py',
   'PYMODULE'),
  ('docx.exceptions',
   'c:\\users\\z0044wmy\\appdata\\local\\continuum\\anaconda3\\envs\\mark_gen_git\\lib\\site-packages\\docx\\exceptions.py',
   'PYMODULE'),
  ('docx.text.font',
   'c:\\users\\z0044wmy\\appdata\\local\\continuum\\anaconda3\\envs\\mark_gen_git\\lib\\site-packages\\docx\\text\\font.py',
   'PYMODULE'),
  ('docx.dml.color',
   'c:\\users\\z0044wmy\\appdata\\local\\continuum\\anaconda3\\envs\\mark_gen_git\\lib\\site-packages\\docx\\dml\\color.py',
   'PYMODULE'),
  ('docx.dml',
   'c:\\users\\z0044wmy\\appdata\\local\\continuum\\anaconda3\\envs\\mark_gen_git\\lib\\site-packages\\docx\\dml\\__init__.py',
   'PYMODULE'),
  ('docx.oxml.simpletypes',
   'c:\\users\\z0044wmy\\appdata\\local\\continuum\\anaconda3\\envs\\mark_gen_git\\lib\\site-packages\\docx\\oxml\\simpletypes.py',
   'PYMODULE'),
  ('docx.enum.dml',
   'c:\\users\\z0044wmy\\appdata\\local\\continuum\\anaconda3\\envs\\mark_gen_git\\lib\\site-packages\\docx\\enum\\dml.py',
   'PYMODULE'),
  ('docx.enum.style',
   'c:\\users\\z0044wmy\\appdata\\local\\continuum\\anaconda3\\envs\\mark_gen_git\\lib\\site-packages\\docx\\enum\\style.py',
   'PYMODULE'),
  ('docx.styles.latent',
   'c:\\users\\z0044wmy\\appdata\\local\\continuum\\anaconda3\\envs\\mark_gen_git\\lib\\site-packages\\docx\\styles\\latent.py',
   'PYMODULE'),
  ('docx.styles',
   'c:\\users\\z0044wmy\\appdata\\local\\continuum\\anaconda3\\envs\\mark_gen_git\\lib\\site-packages\\docx\\styles\\__init__.py',
   'PYMODULE'),
  ('docx.shared',
   'c:\\users\\z0044wmy\\appdata\\local\\continuum\\anaconda3\\envs\\mark_gen_git\\lib\\site-packages\\docx\\shared.py',
   'PYMODULE'),
  ('docx.oxml',
   'c:\\users\\z0044wmy\\appdata\\local\\continuum\\anaconda3\\envs\\mark_gen_git\\lib\\site-packages\\docx\\oxml\\__init__.py',
   'PYMODULE'),
  ('docx.oxml.text.run',
   'c:\\users\\z0044wmy\\appdata\\local\\continuum\\anaconda3\\envs\\mark_gen_git\\lib\\site-packages\\docx\\oxml\\text\\run.py',
   'PYMODULE'),
  ('docx.oxml.text',
   'c:\\users\\z0044wmy\\appdata\\local\\continuum\\anaconda3\\envs\\mark_gen_git\\lib\\site-packages\\docx\\oxml\\text\\__init__.py',
   'PYMODULE'),
  ('docx.oxml.xmlchemy',
   'c:\\users\\z0044wmy\\appdata\\local\\continuum\\anaconda3\\envs\\mark_gen_git\\lib\\site-packages\\docx\\oxml\\xmlchemy.py',
   'PYMODULE'),
  ('docx.oxml.exceptions',
   'c:\\users\\z0044wmy\\appdata\\local\\continuum\\anaconda3\\envs\\mark_gen_git\\lib\\site-packages\\docx\\oxml\\exceptions.py',
   'PYMODULE'),
  ('docx.compat',
   'c:\\users\\z0044wmy\\appdata\\local\\continuum\\anaconda3\\envs\\mark_gen_git\\lib\\site-packages\\docx\\compat.py',
   'PYMODULE'),
  ('docx.oxml.text.parfmt',
   'c:\\users\\z0044wmy\\appdata\\local\\continuum\\anaconda3\\envs\\mark_gen_git\\lib\\site-packages\\docx\\oxml\\text\\parfmt.py',
   'PYMODULE'),
  ('docx.oxml.text.paragraph',
   'c:\\users\\z0044wmy\\appdata\\local\\continuum\\anaconda3\\envs\\mark_gen_git\\lib\\site-packages\\docx\\oxml\\text\\paragraph.py',
   'PYMODULE'),
  ('docx.oxml.text.font',
   'c:\\users\\z0044wmy\\appdata\\local\\continuum\\anaconda3\\envs\\mark_gen_git\\lib\\site-packages\\docx\\oxml\\text\\font.py',
   'PYMODULE'),
  ('docx.oxml.table',
   'c:\\users\\z0044wmy\\appdata\\local\\continuum\\anaconda3\\envs\\mark_gen_git\\lib\\site-packages\\docx\\oxml\\table.py',
   'PYMODULE'),
  ('docx.enum.table',
   'c:\\users\\z0044wmy\\appdata\\local\\continuum\\anaconda3\\envs\\mark_gen_git\\lib\\site-packages\\docx\\enum\\table.py',
   'PYMODULE'),
  ('docx.oxml.styles',
   'c:\\users\\z0044wmy\\appdata\\local\\continuum\\anaconda3\\envs\\mark_gen_git\\lib\\site-packages\\docx\\oxml\\styles.py',
   'PYMODULE'),
  ('docx.oxml.shape',
   'c:\\users\\z0044wmy\\appdata\\local\\continuum\\anaconda3\\envs\\mark_gen_git\\lib\\site-packages\\docx\\oxml\\shape.py',
   'PYMODULE'),
  ('docx.oxml.settings',
   'c:\\users\\z0044wmy\\appdata\\local\\continuum\\anaconda3\\envs\\mark_gen_git\\lib\\site-packages\\docx\\oxml\\settings.py',
   'PYMODULE'),
  ('docx.oxml.section',
   'c:\\users\\z0044wmy\\appdata\\local\\continuum\\anaconda3\\envs\\mark_gen_git\\lib\\site-packages\\docx\\oxml\\section.py',
   'PYMODULE'),
  ('docx.enum.section',
   'c:\\users\\z0044wmy\\appdata\\local\\continuum\\anaconda3\\envs\\mark_gen_git\\lib\\site-packages\\docx\\enum\\section.py',
   'PYMODULE'),
  ('docx.oxml.numbering',
   'c:\\users\\z0044wmy\\appdata\\local\\continuum\\anaconda3\\envs\\mark_gen_git\\lib\\site-packages\\docx\\oxml\\numbering.py',
   'PYMODULE'),
  ('docx.oxml.document',
   'c:\\users\\z0044wmy\\appdata\\local\\continuum\\anaconda3\\envs\\mark_gen_git\\lib\\site-packages\\docx\\oxml\\document.py',
   'PYMODULE'),
  ('docx.oxml.coreprops',
   'c:\\users\\z0044wmy\\appdata\\local\\continuum\\anaconda3\\envs\\mark_gen_git\\lib\\site-packages\\docx\\oxml\\coreprops.py',
   'PYMODULE'),
  ('docx.oxml.shared',
   'c:\\users\\z0044wmy\\appdata\\local\\continuum\\anaconda3\\envs\\mark_gen_git\\lib\\site-packages\\docx\\oxml\\shared.py',
   'PYMODULE'),
  ('docx.oxml.ns',
   'c:\\users\\z0044wmy\\appdata\\local\\continuum\\anaconda3\\envs\\mark_gen_git\\lib\\site-packages\\docx\\oxml\\ns.py',
   'PYMODULE'),
  ('docx.opc.packuri',
   'c:\\users\\z0044wmy\\appdata\\local\\continuum\\anaconda3\\envs\\mark_gen_git\\lib\\site-packages\\docx\\opc\\packuri.py',
   'PYMODULE'),
  ('docx.opc',
   'c:\\users\\z0044wmy\\appdata\\local\\continuum\\anaconda3\\envs\\mark_gen_git\\lib\\site-packages\\docx\\opc\\__init__.py',
   'PYMODULE'),
  ('docx.parts.settings',
   'c:\\users\\z0044wmy\\appdata\\local\\continuum\\anaconda3\\envs\\mark_gen_git\\lib\\site-packages\\docx\\parts\\settings.py',
   'PYMODULE'),
  ('docx.settings',
   'c:\\users\\z0044wmy\\appdata\\local\\continuum\\anaconda3\\envs\\mark_gen_git\\lib\\site-packages\\docx\\settings.py',
   'PYMODULE'),
  ('docx.parts.numbering',
   'c:\\users\\z0044wmy\\appdata\\local\\continuum\\anaconda3\\envs\\mark_gen_git\\lib\\site-packages\\docx\\parts\\numbering.py',
   'PYMODULE'),
  ('docx.parts.image',
   'c:\\users\\z0044wmy\\appdata\\local\\continuum\\anaconda3\\envs\\mark_gen_git\\lib\\site-packages\\docx\\parts\\image.py',
   'PYMODULE'),
  ('docx.image.image',
   'c:\\users\\z0044wmy\\appdata\\local\\continuum\\anaconda3\\envs\\mark_gen_git\\lib\\site-packages\\docx\\image\\image.py',
   'PYMODULE'),
  ('docx.image',
   'c:\\users\\z0044wmy\\appdata\\local\\continuum\\anaconda3\\envs\\mark_gen_git\\lib\\site-packages\\docx\\image\\__init__.py',
   'PYMODULE'),
  ('docx.image.tiff',
   'c:\\users\\z0044wmy\\appdata\\local\\continuum\\anaconda3\\envs\\mark_gen_git\\lib\\site-packages\\docx\\image\\tiff.py',
   'PYMODULE'),
  ('docx.image.helpers',
   'c:\\users\\z0044wmy\\appdata\\local\\continuum\\anaconda3\\envs\\mark_gen_git\\lib\\site-packages\\docx\\image\\helpers.py',
   'PYMODULE'),
  ('docx.image.constants',
   'c:\\users\\z0044wmy\\appdata\\local\\continuum\\anaconda3\\envs\\mark_gen_git\\lib\\site-packages\\docx\\image\\constants.py',
   'PYMODULE'),
  ('docx.image.png',
   'c:\\users\\z0044wmy\\appdata\\local\\continuum\\anaconda3\\envs\\mark_gen_git\\lib\\site-packages\\docx\\image\\png.py',
   'PYMODULE'),
  ('docx.image.jpeg',
   'c:\\users\\z0044wmy\\appdata\\local\\continuum\\anaconda3\\envs\\mark_gen_git\\lib\\site-packages\\docx\\image\\jpeg.py',
   'PYMODULE'),
  ('docx.image.gif',
   'c:\\users\\z0044wmy\\appdata\\local\\continuum\\anaconda3\\envs\\mark_gen_git\\lib\\site-packages\\docx\\image\\gif.py',
   'PYMODULE'),
  ('docx.image.bmp',
   'c:\\users\\z0044wmy\\appdata\\local\\continuum\\anaconda3\\envs\\mark_gen_git\\lib\\site-packages\\docx\\image\\bmp.py',
   'PYMODULE'),
  ('docx.image.exceptions',
   'c:\\users\\z0044wmy\\appdata\\local\\continuum\\anaconda3\\envs\\mark_gen_git\\lib\\site-packages\\docx\\image\\exceptions.py',
   'PYMODULE'),
  ('docx.parts.hdrftr',
   'c:\\users\\z0044wmy\\appdata\\local\\continuum\\anaconda3\\envs\\mark_gen_git\\lib\\site-packages\\docx\\parts\\hdrftr.py',
   'PYMODULE'),
  ('docx.parts.story',
   'c:\\users\\z0044wmy\\appdata\\local\\continuum\\anaconda3\\envs\\mark_gen_git\\lib\\site-packages\\docx\\parts\\story.py',
   'PYMODULE'),
  ('docx.parts.document',
   'c:\\users\\z0044wmy\\appdata\\local\\continuum\\anaconda3\\envs\\mark_gen_git\\lib\\site-packages\\docx\\parts\\document.py',
   'PYMODULE'),
  ('docx.shape',
   'c:\\users\\z0044wmy\\appdata\\local\\continuum\\anaconda3\\envs\\mark_gen_git\\lib\\site-packages\\docx\\shape.py',
   'PYMODULE'),
  ('docx.enum.shape',
   'c:\\users\\z0044wmy\\appdata\\local\\continuum\\anaconda3\\envs\\mark_gen_git\\lib\\site-packages\\docx\\enum\\shape.py',
   'PYMODULE'),
  ('docx.document',
   'c:\\users\\z0044wmy\\appdata\\local\\continuum\\anaconda3\\envs\\mark_gen_git\\lib\\site-packages\\docx\\document.py',
   'PYMODULE'),
  ('docx.section',
   'c:\\users\\z0044wmy\\appdata\\local\\continuum\\anaconda3\\envs\\mark_gen_git\\lib\\site-packages\\docx\\section.py',
   'PYMODULE'),
  ('docx.blkcntnr',
   'c:\\users\\z0044wmy\\appdata\\local\\continuum\\anaconda3\\envs\\mark_gen_git\\lib\\site-packages\\docx\\blkcntnr.py',
   'PYMODULE'),
  ('docx.table',
   'c:\\users\\z0044wmy\\appdata\\local\\continuum\\anaconda3\\envs\\mark_gen_git\\lib\\site-packages\\docx\\table.py',
   'PYMODULE'),
  ('docx.text.paragraph',
   'c:\\users\\z0044wmy\\appdata\\local\\continuum\\anaconda3\\envs\\mark_gen_git\\lib\\site-packages\\docx\\text\\paragraph.py',
   'PYMODULE'),
  ('docx.text.run',
   'c:\\users\\z0044wmy\\appdata\\local\\continuum\\anaconda3\\envs\\mark_gen_git\\lib\\site-packages\\docx\\text\\run.py',
   'PYMODULE'),
  ('docx.opc.parts.coreprops',
   'c:\\users\\z0044wmy\\appdata\\local\\continuum\\anaconda3\\envs\\mark_gen_git\\lib\\site-packages\\docx\\opc\\parts\\coreprops.py',
   'PYMODULE'),
  ('docx.opc.parts',
   'c:\\users\\z0044wmy\\appdata\\local\\continuum\\anaconda3\\envs\\mark_gen_git\\lib\\site-packages\\docx\\opc\\parts\\__init__.py',
   'PYMODULE'),
  ('docx.opc.coreprops',
   'c:\\users\\z0044wmy\\appdata\\local\\continuum\\anaconda3\\envs\\mark_gen_git\\lib\\site-packages\\docx\\opc\\coreprops.py',
   'PYMODULE'),
  ('docx.opc.part',
   'c:\\users\\z0044wmy\\appdata\\local\\continuum\\anaconda3\\envs\\mark_gen_git\\lib\\site-packages\\docx\\opc\\part.py',
   'PYMODULE'),
  ('docx.opc.shared',
   'c:\\users\\z0044wmy\\appdata\\local\\continuum\\anaconda3\\envs\\mark_gen_git\\lib\\site-packages\\docx\\opc\\shared.py',
   'PYMODULE'),
  ('docx.opc.rel',
   'c:\\users\\z0044wmy\\appdata\\local\\continuum\\anaconda3\\envs\\mark_gen_git\\lib\\site-packages\\docx\\opc\\rel.py',
   'PYMODULE'),
  ('docx.opc.oxml',
   'c:\\users\\z0044wmy\\appdata\\local\\continuum\\anaconda3\\envs\\mark_gen_git\\lib\\site-packages\\docx\\opc\\oxml.py',
   'PYMODULE'),
  ('docx.opc.compat',
   'c:\\users\\z0044wmy\\appdata\\local\\continuum\\anaconda3\\envs\\mark_gen_git\\lib\\site-packages\\docx\\opc\\compat.py',
   'PYMODULE'),
  ('docx.opc.constants',
   'c:\\users\\z0044wmy\\appdata\\local\\continuum\\anaconda3\\envs\\mark_gen_git\\lib\\site-packages\\docx\\opc\\constants.py',
   'PYMODULE'),
  ('docx.api',
   'c:\\users\\z0044wmy\\appdata\\local\\continuum\\anaconda3\\envs\\mark_gen_git\\lib\\site-packages\\docx\\api.py',
   'PYMODULE'),
  ('docx.package',
   'c:\\users\\z0044wmy\\appdata\\local\\continuum\\anaconda3\\envs\\mark_gen_git\\lib\\site-packages\\docx\\package.py',
   'PYMODULE'),
  ('docx.opc.package',
   'c:\\users\\z0044wmy\\appdata\\local\\continuum\\anaconda3\\envs\\mark_gen_git\\lib\\site-packages\\docx\\opc\\package.py',
   'PYMODULE'),
  ('docx.opc.pkgwriter',
   'c:\\users\\z0044wmy\\appdata\\local\\continuum\\anaconda3\\envs\\mark_gen_git\\lib\\site-packages\\docx\\opc\\pkgwriter.py',
   'PYMODULE'),
  ('docx.opc.spec',
   'c:\\users\\z0044wmy\\appdata\\local\\continuum\\anaconda3\\envs\\mark_gen_git\\lib\\site-packages\\docx\\opc\\spec.py',
   'PYMODULE'),
  ('docx.opc.phys_pkg',
   'c:\\users\\z0044wmy\\appdata\\local\\continuum\\anaconda3\\envs\\mark_gen_git\\lib\\site-packages\\docx\\opc\\phys_pkg.py',
   'PYMODULE'),
  ('docx.opc.exceptions',
   'c:\\users\\z0044wmy\\appdata\\local\\continuum\\anaconda3\\envs\\mark_gen_git\\lib\\site-packages\\docx\\opc\\exceptions.py',
   'PYMODULE'),
  ('docx.opc.pkgreader',
   'c:\\users\\z0044wmy\\appdata\\local\\continuum\\anaconda3\\envs\\mark_gen_git\\lib\\site-packages\\docx\\opc\\pkgreader.py',
   'PYMODULE'),
  ('openpyxl',
   'c:\\users\\z0044wmy\\appdata\\local\\continuum\\anaconda3\\envs\\mark_gen_git\\lib\\site-packages\\openpyxl\\__init__.py',
   'PYMODULE'),
  ('openpyxl._constants',
   'c:\\users\\z0044wmy\\appdata\\local\\continuum\\anaconda3\\envs\\mark_gen_git\\lib\\site-packages\\openpyxl\\_constants.py',
   'PYMODULE'),
  ('openpyxl.reader.excel',
   'c:\\users\\z0044wmy\\appdata\\local\\continuum\\anaconda3\\envs\\mark_gen_git\\lib\\site-packages\\openpyxl\\reader\\excel.py',
   'PYMODULE'),
  ('openpyxl.reader',
   'c:\\users\\z0044wmy\\appdata\\local\\continuum\\anaconda3\\envs\\mark_gen_git\\lib\\site-packages\\openpyxl\\reader\\__init__.py',
   'PYMODULE'),
  ('openpyxl.reader.drawings',
   'c:\\users\\z0044wmy\\appdata\\local\\continuum\\anaconda3\\envs\\mark_gen_git\\lib\\site-packages\\openpyxl\\reader\\drawings.py',
   'PYMODULE'),
  ('openpyxl.chart.reader',
   'c:\\users\\z0044wmy\\appdata\\local\\continuum\\anaconda3\\envs\\mark_gen_git\\lib\\site-packages\\openpyxl\\chart\\reader.py',
   'PYMODULE'),
  ('openpyxl.chart',
   'c:\\users\\z0044wmy\\appdata\\local\\continuum\\anaconda3\\envs\\mark_gen_git\\lib\\site-packages\\openpyxl\\chart\\__init__.py',
   'PYMODULE'),
  ('openpyxl.chart.reference',
   'c:\\users\\z0044wmy\\appdata\\local\\continuum\\anaconda3\\envs\\mark_gen_git\\lib\\site-packages\\openpyxl\\chart\\reference.py',
   'PYMODULE'),
  ('openpyxl.worksheet.worksheet',
   'c:\\users\\z0044wmy\\appdata\\local\\continuum\\anaconda3\\envs\\mark_gen_git\\lib\\site-packages\\openpyxl\\worksheet\\worksheet.py',
   'PYMODULE'),
  ('openpyxl.worksheet',
   'c:\\users\\z0044wmy\\appdata\\local\\continuum\\anaconda3\\envs\\mark_gen_git\\lib\\site-packages\\openpyxl\\worksheet\\__init__.py',
   'PYMODULE'),
  ('openpyxl.worksheet.scenario',
   'c:\\users\\z0044wmy\\appdata\\local\\continuum\\anaconda3\\envs\\mark_gen_git\\lib\\site-packages\\openpyxl\\worksheet\\scenario.py',
   'PYMODULE'),
  ('openpyxl.worksheet.pagebreak',
   'c:\\users\\z0044wmy\\appdata\\local\\continuum\\anaconda3\\envs\\mark_gen_git\\lib\\site-packages\\openpyxl\\worksheet\\pagebreak.py',
   'PYMODULE'),
  ('openpyxl.worksheet.properties',
   'c:\\users\\z0044wmy\\appdata\\local\\continuum\\anaconda3\\envs\\mark_gen_git\\lib\\site-packages\\openpyxl\\worksheet\\properties.py',
   'PYMODULE'),
  ('openpyxl.worksheet.merge',
   'c:\\users\\z0044wmy\\appdata\\local\\continuum\\anaconda3\\envs\\mark_gen_git\\lib\\site-packages\\openpyxl\\worksheet\\merge.py',
   'PYMODULE'),
  ('openpyxl.cell.cell',
   'c:\\users\\z0044wmy\\appdata\\local\\continuum\\anaconda3\\envs\\mark_gen_git\\lib\\site-packages\\openpyxl\\cell\\cell.py',
   'PYMODULE'),
  ('openpyxl.worksheet.hyperlink',
   'c:\\users\\z0044wmy\\appdata\\local\\continuum\\anaconda3\\envs\\mark_gen_git\\lib\\site-packages\\openpyxl\\worksheet\\hyperlink.py',
   'PYMODULE'),
  ('openpyxl.styles.styleable',
   'c:\\users\\z0044wmy\\appdata\\local\\continuum\\anaconda3\\envs\\mark_gen_git\\lib\\site-packages\\openpyxl\\styles\\styleable.py',
   'PYMODULE'),
  ('openpyxl.styles.builtins',
   'c:\\users\\z0044wmy\\appdata\\local\\continuum\\anaconda3\\envs\\mark_gen_git\\lib\\site-packages\\openpyxl\\styles\\builtins.py',
   'PYMODULE'),
  ('openpyxl.styles.proxy',
   'c:\\users\\z0044wmy\\appdata\\local\\continuum\\anaconda3\\envs\\mark_gen_git\\lib\\site-packages\\openpyxl\\styles\\proxy.py',
   'PYMODULE'),
  ('openpyxl.worksheet.cell_range',
   'c:\\users\\z0044wmy\\appdata\\local\\continuum\\anaconda3\\envs\\mark_gen_git\\lib\\site-packages\\openpyxl\\worksheet\\cell_range.py',
   'PYMODULE'),
  ('openpyxl.worksheet.views',
   'c:\\users\\z0044wmy\\appdata\\local\\continuum\\anaconda3\\envs\\mark_gen_git\\lib\\site-packages\\openpyxl\\worksheet\\views.py',
   'PYMODULE'),
  ('openpyxl.worksheet.filters',
   'c:\\users\\z0044wmy\\appdata\\local\\continuum\\anaconda3\\envs\\mark_gen_git\\lib\\site-packages\\openpyxl\\worksheet\\filters.py',
   'PYMODULE'),
  ('openpyxl.worksheet.protection',
   'c:\\users\\z0044wmy\\appdata\\local\\continuum\\anaconda3\\envs\\mark_gen_git\\lib\\site-packages\\openpyxl\\worksheet\\protection.py',
   'PYMODULE'),
  ('openpyxl.utils.protection',
   'c:\\users\\z0044wmy\\appdata\\local\\continuum\\anaconda3\\envs\\mark_gen_git\\lib\\site-packages\\openpyxl\\utils\\protection.py',
   'PYMODULE'),
  ('openpyxl.worksheet.dimensions',
   'c:\\users\\z0044wmy\\appdata\\local\\continuum\\anaconda3\\envs\\mark_gen_git\\lib\\site-packages\\openpyxl\\worksheet\\dimensions.py',
   'PYMODULE'),
  ('openpyxl.utils.bound_dictionary',
   'c:\\users\\z0044wmy\\appdata\\local\\continuum\\anaconda3\\envs\\mark_gen_git\\lib\\site-packages\\openpyxl\\utils\\bound_dictionary.py',
   'PYMODULE'),
  ('openpyxl.utils.units',
   'c:\\users\\z0044wmy\\appdata\\local\\continuum\\anaconda3\\envs\\mark_gen_git\\lib\\site-packages\\openpyxl\\utils\\units.py',
   'PYMODULE'),
  ('openpyxl.worksheet.page',
   'c:\\users\\z0044wmy\\appdata\\local\\continuum\\anaconda3\\envs\\mark_gen_git\\lib\\site-packages\\openpyxl\\worksheet\\page.py',
   'PYMODULE'),
  ('openpyxl.worksheet.datavalidation',
   'c:\\users\\z0044wmy\\appdata\\local\\continuum\\anaconda3\\envs\\mark_gen_git\\lib\\site-packages\\openpyxl\\worksheet\\datavalidation.py',
   'PYMODULE'),
  ('openpyxl.formula.translate',
   'c:\\users\\z0044wmy\\appdata\\local\\continuum\\anaconda3\\envs\\mark_gen_git\\lib\\site-packages\\openpyxl\\formula\\translate.py',
   'PYMODULE'),
  ('openpyxl.formula',
   'c:\\users\\z0044wmy\\appdata\\local\\continuum\\anaconda3\\envs\\mark_gen_git\\lib\\site-packages\\openpyxl\\formula\\__init__.py',
   'PYMODULE'),
  ('openpyxl.formula.tokenizer',
   'c:\\users\\z0044wmy\\appdata\\local\\continuum\\anaconda3\\envs\\mark_gen_git\\lib\\site-packages\\openpyxl\\formula\\tokenizer.py',
   'PYMODULE'),
  ('openpyxl.workbook.defined_name',
   'c:\\users\\z0044wmy\\appdata\\local\\continuum\\anaconda3\\envs\\mark_gen_git\\lib\\site-packages\\openpyxl\\workbook\\defined_name.py',
   'PYMODULE'),
  ('openpyxl.workbook.child',
   'c:\\users\\z0044wmy\\appdata\\local\\continuum\\anaconda3\\envs\\mark_gen_git\\lib\\site-packages\\openpyxl\\workbook\\child.py',
   'PYMODULE'),
  ('openpyxl.worksheet.header_footer',
   'c:\\users\\z0044wmy\\appdata\\local\\continuum\\anaconda3\\envs\\mark_gen_git\\lib\\site-packages\\openpyxl\\worksheet\\header_footer.py',
   'PYMODULE'),
  ('openpyxl.utils.escape',
   'c:\\users\\z0044wmy\\appdata\\local\\continuum\\anaconda3\\envs\\mark_gen_git\\lib\\site-packages\\openpyxl\\utils\\escape.py',
   'PYMODULE'),
  ('openpyxl.formatting.formatting',
   'c:\\users\\z0044wmy\\appdata\\local\\continuum\\anaconda3\\envs\\mark_gen_git\\lib\\site-packages\\openpyxl\\formatting\\formatting.py',
   'PYMODULE'),
  ('openpyxl.formatting',
   'c:\\users\\z0044wmy\\appdata\\local\\continuum\\anaconda3\\envs\\mark_gen_git\\lib\\site-packages\\openpyxl\\formatting\\__init__.py',
   'PYMODULE'),
  ('openpyxl.formatting.rule',
   'c:\\users\\z0044wmy\\appdata\\local\\continuum\\anaconda3\\envs\\mark_gen_git\\lib\\site-packages\\openpyxl\\formatting\\rule.py',
   'PYMODULE'),
  ('openpyxl.styles.differential',
   'c:\\users\\z0044wmy\\appdata\\local\\continuum\\anaconda3\\envs\\mark_gen_git\\lib\\site-packages\\openpyxl\\styles\\differential.py',
   'PYMODULE'),
  ('openpyxl.chart.series_factory',
   'c:\\users\\z0044wmy\\appdata\\local\\continuum\\anaconda3\\envs\\mark_gen_git\\lib\\site-packages\\openpyxl\\chart\\series_factory.py',
   'PYMODULE'),
  ('openpyxl.chart.series',
   'c:\\users\\z0044wmy\\appdata\\local\\continuum\\anaconda3\\envs\\mark_gen_git\\lib\\site-packages\\openpyxl\\chart\\series.py',
   'PYMODULE'),
  ('openpyxl.chart.trendline',
   'c:\\users\\z0044wmy\\appdata\\local\\continuum\\anaconda3\\envs\\mark_gen_git\\lib\\site-packages\\openpyxl\\chart\\trendline.py',
   'PYMODULE'),
  ('openpyxl.chart.layout',
   'c:\\users\\z0044wmy\\appdata\\local\\continuum\\anaconda3\\envs\\mark_gen_git\\lib\\site-packages\\openpyxl\\chart\\layout.py',
   'PYMODULE'),
  ('openpyxl.chart.text',
   'c:\\users\\z0044wmy\\appdata\\local\\continuum\\anaconda3\\envs\\mark_gen_git\\lib\\site-packages\\openpyxl\\chart\\text.py',
   'PYMODULE'),
  ('openpyxl.drawing.text',
   'c:\\users\\z0044wmy\\appdata\\local\\continuum\\anaconda3\\envs\\mark_gen_git\\lib\\site-packages\\openpyxl\\drawing\\text.py',
   'PYMODULE'),
  ('openpyxl.drawing',
   'c:\\users\\z0044wmy\\appdata\\local\\continuum\\anaconda3\\envs\\mark_gen_git\\lib\\site-packages\\openpyxl\\drawing\\__init__.py',
   'PYMODULE'),
  ('openpyxl.drawing.drawing',
   'c:\\users\\z0044wmy\\appdata\\local\\continuum\\anaconda3\\envs\\mark_gen_git\\lib\\site-packages\\openpyxl\\drawing\\drawing.py',
   'PYMODULE'),
  ('openpyxl.drawing.geometry',
   'c:\\users\\z0044wmy\\appdata\\local\\continuum\\anaconda3\\envs\\mark_gen_git\\lib\\site-packages\\openpyxl\\drawing\\geometry.py',
   'PYMODULE'),
  ('openpyxl.drawing.line',
   'c:\\users\\z0044wmy\\appdata\\local\\continuum\\anaconda3\\envs\\mark_gen_git\\lib\\site-packages\\openpyxl\\drawing\\line.py',
   'PYMODULE'),
  ('openpyxl.drawing.fill',
   'c:\\users\\z0044wmy\\appdata\\local\\continuum\\anaconda3\\envs\\mark_gen_git\\lib\\site-packages\\openpyxl\\drawing\\fill.py',
   'PYMODULE'),
  ('openpyxl.drawing.effect',
   'c:\\users\\z0044wmy\\appdata\\local\\continuum\\anaconda3\\envs\\mark_gen_git\\lib\\site-packages\\openpyxl\\drawing\\effect.py',
   'PYMODULE'),
  ('openpyxl.drawing.colors',
   'c:\\users\\z0044wmy\\appdata\\local\\continuum\\anaconda3\\envs\\mark_gen_git\\lib\\site-packages\\openpyxl\\drawing\\colors.py',
   'PYMODULE'),
  ('openpyxl.chart.marker',
   'c:\\users\\z0044wmy\\appdata\\local\\continuum\\anaconda3\\envs\\mark_gen_git\\lib\\site-packages\\openpyxl\\chart\\marker.py',
   'PYMODULE'),
  ('openpyxl.chart.picture',
   'c:\\users\\z0044wmy\\appdata\\local\\continuum\\anaconda3\\envs\\mark_gen_git\\lib\\site-packages\\openpyxl\\chart\\picture.py',
   'PYMODULE'),
  ('openpyxl.chart.label',
   'c:\\users\\z0044wmy\\appdata\\local\\continuum\\anaconda3\\envs\\mark_gen_git\\lib\\site-packages\\openpyxl\\chart\\label.py',
   'PYMODULE'),
  ('openpyxl.chart.error_bar',
   'c:\\users\\z0044wmy\\appdata\\local\\continuum\\anaconda3\\envs\\mark_gen_git\\lib\\site-packages\\openpyxl\\chart\\error_bar.py',
   'PYMODULE'),
  ('openpyxl.chart.shapes',
   'c:\\users\\z0044wmy\\appdata\\local\\continuum\\anaconda3\\envs\\mark_gen_git\\lib\\site-packages\\openpyxl\\chart\\shapes.py',
   'PYMODULE'),
  ('openpyxl.chart.data_source',
   'c:\\users\\z0044wmy\\appdata\\local\\continuum\\anaconda3\\envs\\mark_gen_git\\lib\\site-packages\\openpyxl\\chart\\data_source.py',
   'PYMODULE'),
  ('openpyxl.chart.surface_chart',
   'c:\\users\\z0044wmy\\appdata\\local\\continuum\\anaconda3\\envs\\mark_gen_git\\lib\\site-packages\\openpyxl\\chart\\surface_chart.py',
   'PYMODULE'),
  ('openpyxl.chart.axis',
   'c:\\users\\z0044wmy\\appdata\\local\\continuum\\anaconda3\\envs\\mark_gen_git\\lib\\site-packages\\openpyxl\\chart\\axis.py',
   'PYMODULE'),
  ('openpyxl.chart.title',
   'c:\\users\\z0044wmy\\appdata\\local\\continuum\\anaconda3\\envs\\mark_gen_git\\lib\\site-packages\\openpyxl\\chart\\title.py',
   'PYMODULE'),
  ('openpyxl.chart.descriptors',
   'c:\\users\\z0044wmy\\appdata\\local\\continuum\\anaconda3\\envs\\mark_gen_git\\lib\\site-packages\\openpyxl\\chart\\descriptors.py',
   'PYMODULE'),
  ('openpyxl.chart._3d',
   'c:\\users\\z0044wmy\\appdata\\local\\continuum\\anaconda3\\envs\\mark_gen_git\\lib\\site-packages\\openpyxl\\chart\\_3d.py',
   'PYMODULE'),
  ('openpyxl.chart._chart',
   'c:\\users\\z0044wmy\\appdata\\local\\continuum\\anaconda3\\envs\\mark_gen_git\\lib\\site-packages\\openpyxl\\chart\\_chart.py',
   'PYMODULE'),
  ('openpyxl.chart.legend',
   'c:\\users\\z0044wmy\\appdata\\local\\continuum\\anaconda3\\envs\\mark_gen_git\\lib\\site-packages\\openpyxl\\chart\\legend.py',
   'PYMODULE'),
  ('openpyxl.chart.stock_chart',
   'c:\\users\\z0044wmy\\appdata\\local\\continuum\\anaconda3\\envs\\mark_gen_git\\lib\\site-packages\\openpyxl\\chart\\stock_chart.py',
   'PYMODULE'),
  ('openpyxl.chart.updown_bars',
   'c:\\users\\z0044wmy\\appdata\\local\\continuum\\anaconda3\\envs\\mark_gen_git\\lib\\site-packages\\openpyxl\\chart\\updown_bars.py',
   'PYMODULE'),
  ('openpyxl.chart.scatter_chart',
   'c:\\users\\z0044wmy\\appdata\\local\\continuum\\anaconda3\\envs\\mark_gen_git\\lib\\site-packages\\openpyxl\\chart\\scatter_chart.py',
   'PYMODULE'),
  ('openpyxl.chart.radar_chart',
   'c:\\users\\z0044wmy\\appdata\\local\\continuum\\anaconda3\\envs\\mark_gen_git\\lib\\site-packages\\openpyxl\\chart\\radar_chart.py',
   'PYMODULE'),
  ('openpyxl.chart.pie_chart',
   'c:\\users\\z0044wmy\\appdata\\local\\continuum\\anaconda3\\envs\\mark_gen_git\\lib\\site-packages\\openpyxl\\chart\\pie_chart.py',
   'PYMODULE'),
  ('openpyxl.chart.line_chart',
   'c:\\users\\z0044wmy\\appdata\\local\\continuum\\anaconda3\\envs\\mark_gen_git\\lib\\site-packages\\openpyxl\\chart\\line_chart.py',
   'PYMODULE'),
  ('openpyxl.chart.bubble_chart',
   'c:\\users\\z0044wmy\\appdata\\local\\continuum\\anaconda3\\envs\\mark_gen_git\\lib\\site-packages\\openpyxl\\chart\\bubble_chart.py',
   'PYMODULE'),
  ('openpyxl.chart.bar_chart',
   'c:\\users\\z0044wmy\\appdata\\local\\continuum\\anaconda3\\envs\\mark_gen_git\\lib\\site-packages\\openpyxl\\chart\\bar_chart.py',
   'PYMODULE'),
  ('openpyxl.chart.area_chart',
   'c:\\users\\z0044wmy\\appdata\\local\\continuum\\anaconda3\\envs\\mark_gen_git\\lib\\site-packages\\openpyxl\\chart\\area_chart.py',
   'PYMODULE'),
  ('openpyxl.chart.chartspace',
   'c:\\users\\z0044wmy\\appdata\\local\\continuum\\anaconda3\\envs\\mark_gen_git\\lib\\site-packages\\openpyxl\\chart\\chartspace.py',
   'PYMODULE'),
  ('openpyxl.chart.print_settings',
   'c:\\users\\z0044wmy\\appdata\\local\\continuum\\anaconda3\\envs\\mark_gen_git\\lib\\site-packages\\openpyxl\\chart\\print_settings.py',
   'PYMODULE'),
  ('openpyxl.chart.pivot',
   'c:\\users\\z0044wmy\\appdata\\local\\continuum\\anaconda3\\envs\\mark_gen_git\\lib\\site-packages\\openpyxl\\chart\\pivot.py',
   'PYMODULE'),
  ('openpyxl.chart.plotarea',
   'c:\\users\\z0044wmy\\appdata\\local\\continuum\\anaconda3\\envs\\mark_gen_git\\lib\\site-packages\\openpyxl\\chart\\plotarea.py',
   'PYMODULE'),
  ('openpyxl.drawing.image',
   'c:\\users\\z0044wmy\\appdata\\local\\continuum\\anaconda3\\envs\\mark_gen_git\\lib\\site-packages\\openpyxl\\drawing\\image.py',
   'PYMODULE'),
  ('PIL.Image',
   'c:\\users\\z0044wmy\\appdata\\local\\continuum\\anaconda3\\envs\\mark_gen_git\\lib\\site-packages\\PIL\\Image.py',
   'PYMODULE'),
  ('PIL.FliImagePlugin',
   'c:\\users\\z0044wmy\\appdata\\local\\continuum\\anaconda3\\envs\\mark_gen_git\\lib\\site-packages\\PIL\\FliImagePlugin.py',
   'PYMODULE'),
  ('PIL.ImageFile',
   'c:\\users\\z0044wmy\\appdata\\local\\continuum\\anaconda3\\envs\\mark_gen_git\\lib\\site-packages\\PIL\\ImageFile.py',
   'PYMODULE'),
  ('PIL.MspImagePlugin',
   'c:\\users\\z0044wmy\\appdata\\local\\continuum\\anaconda3\\envs\\mark_gen_git\\lib\\site-packages\\PIL\\MspImagePlugin.py',
   'PYMODULE'),
  ('PIL.TgaImagePlugin',
   'c:\\users\\z0044wmy\\appdata\\local\\continuum\\anaconda3\\envs\\mark_gen_git\\lib\\site-packages\\PIL\\TgaImagePlugin.py',
   'PYMODULE'),
  ('PIL.GribStubImagePlugin',
   'c:\\users\\z0044wmy\\appdata\\local\\continuum\\anaconda3\\envs\\mark_gen_git\\lib\\site-packages\\PIL\\GribStubImagePlugin.py',
   'PYMODULE'),
  ('PIL.IptcImagePlugin',
   'c:\\users\\z0044wmy\\appdata\\local\\continuum\\anaconda3\\envs\\mark_gen_git\\lib\\site-packages\\PIL\\IptcImagePlugin.py',
   'PYMODULE'),
  ('PIL.Hdf5StubImagePlugin',
   'c:\\users\\z0044wmy\\appdata\\local\\continuum\\anaconda3\\envs\\mark_gen_git\\lib\\site-packages\\PIL\\Hdf5StubImagePlugin.py',
   'PYMODULE'),
  ('PIL.DcxImagePlugin',
   'c:\\users\\z0044wmy\\appdata\\local\\continuum\\anaconda3\\envs\\mark_gen_git\\lib\\site-packages\\PIL\\DcxImagePlugin.py',
   'PYMODULE'),
  ('PIL.MicImagePlugin',
   'c:\\users\\z0044wmy\\appdata\\local\\continuum\\anaconda3\\envs\\mark_gen_git\\lib\\site-packages\\PIL\\MicImagePlugin.py',
   'PYMODULE'),
  ('PIL.WebPImagePlugin',
   'c:\\users\\z0044wmy\\appdata\\local\\continuum\\anaconda3\\envs\\mark_gen_git\\lib\\site-packages\\PIL\\WebPImagePlugin.py',
   'PYMODULE'),
  ('PIL.SpiderImagePlugin',
   'c:\\users\\z0044wmy\\appdata\\local\\continuum\\anaconda3\\envs\\mark_gen_git\\lib\\site-packages\\PIL\\SpiderImagePlugin.py',
   'PYMODULE'),
  ('PIL.ImageTk',
   'c:\\users\\z0044wmy\\appdata\\local\\continuum\\anaconda3\\envs\\mark_gen_git\\lib\\site-packages\\PIL\\ImageTk.py',
   'PYMODULE'),
  ('PIL.ImImagePlugin',
   'c:\\users\\z0044wmy\\appdata\\local\\continuum\\anaconda3\\envs\\mark_gen_git\\lib\\site-packages\\PIL\\ImImagePlugin.py',
   'PYMODULE'),
  ('PIL.IcoImagePlugin',
   'c:\\users\\z0044wmy\\appdata\\local\\continuum\\anaconda3\\envs\\mark_gen_git\\lib\\site-packages\\PIL\\IcoImagePlugin.py',
   'PYMODULE'),
  ('PIL.IcnsImagePlugin',
   'c:\\users\\z0044wmy\\appdata\\local\\continuum\\anaconda3\\envs\\mark_gen_git\\lib\\site-packages\\PIL\\IcnsImagePlugin.py',
   'PYMODULE'),
  ('PIL.WmfImagePlugin',
   'c:\\users\\z0044wmy\\appdata\\local\\continuum\\anaconda3\\envs\\mark_gen_git\\lib\\site-packages\\PIL\\WmfImagePlugin.py',
   'PYMODULE'),
  ('PIL.FtexImagePlugin',
   'c:\\users\\z0044wmy\\appdata\\local\\continuum\\anaconda3\\envs\\mark_gen_git\\lib\\site-packages\\PIL\\FtexImagePlugin.py',
   'PYMODULE'),
  ('PIL.McIdasImagePlugin',
   'c:\\users\\z0044wmy\\appdata\\local\\continuum\\anaconda3\\envs\\mark_gen_git\\lib\\site-packages\\PIL\\McIdasImagePlugin.py',
   'PYMODULE'),
  ('PIL.FpxImagePlugin',
   'c:\\users\\z0044wmy\\appdata\\local\\continuum\\anaconda3\\envs\\mark_gen_git\\lib\\site-packages\\PIL\\FpxImagePlugin.py',
   'PYMODULE'),
  ('PIL.PsdImagePlugin',
   'c:\\users\\z0044wmy\\appdata\\local\\continuum\\anaconda3\\envs\\mark_gen_git\\lib\\site-packages\\PIL\\PsdImagePlugin.py',
   'PYMODULE'),
  ('PIL.XVThumbImagePlugin',
   'c:\\users\\z0044wmy\\appdata\\local\\continuum\\anaconda3\\envs\\mark_gen_git\\lib\\site-packages\\PIL\\XVThumbImagePlugin.py',
   'PYMODULE'),
  ('PIL.PcxImagePlugin',
   'c:\\users\\z0044wmy\\appdata\\local\\continuum\\anaconda3\\envs\\mark_gen_git\\lib\\site-packages\\PIL\\PcxImagePlugin.py',
   'PYMODULE'),
  ('PIL.Jpeg2KImagePlugin',
   'c:\\users\\z0044wmy\\appdata\\local\\continuum\\anaconda3\\envs\\mark_gen_git\\lib\\site-packages\\PIL\\Jpeg2KImagePlugin.py',
   'PYMODULE'),
  ('PIL.XpmImagePlugin',
   'c:\\users\\z0044wmy\\appdata\\local\\continuum\\anaconda3\\envs\\mark_gen_git\\lib\\site-packages\\PIL\\XpmImagePlugin.py',
   'PYMODULE'),
  ('PIL.MpegImagePlugin',
   'c:\\users\\z0044wmy\\appdata\\local\\continuum\\anaconda3\\envs\\mark_gen_git\\lib\\site-packages\\PIL\\MpegImagePlugin.py',
   'PYMODULE'),
  ('PIL.PalmImagePlugin',
   'c:\\users\\z0044wmy\\appdata\\local\\continuum\\anaconda3\\envs\\mark_gen_git\\lib\\site-packages\\PIL\\PalmImagePlugin.py',
   'PYMODULE'),
  ('PIL.GbrImagePlugin',
   'c:\\users\\z0044wmy\\appdata\\local\\continuum\\anaconda3\\envs\\mark_gen_git\\lib\\site-packages\\PIL\\GbrImagePlugin.py',
   'PYMODULE'),
  ('PIL.SgiImagePlugin',
   'c:\\users\\z0044wmy\\appdata\\local\\continuum\\anaconda3\\envs\\mark_gen_git\\lib\\site-packages\\PIL\\SgiImagePlugin.py',
   'PYMODULE'),
  ('PIL.PixarImagePlugin',
   'c:\\users\\z0044wmy\\appdata\\local\\continuum\\anaconda3\\envs\\mark_gen_git\\lib\\site-packages\\PIL\\PixarImagePlugin.py',
   'PYMODULE'),
  ('PIL.BlpImagePlugin',
   'c:\\users\\z0044wmy\\appdata\\local\\continuum\\anaconda3\\envs\\mark_gen_git\\lib\\site-packages\\PIL\\BlpImagePlugin.py',
   'PYMODULE'),
  ('PIL.SunImagePlugin',
   'c:\\users\\z0044wmy\\appdata\\local\\continuum\\anaconda3\\envs\\mark_gen_git\\lib\\site-packages\\PIL\\SunImagePlugin.py',
   'PYMODULE'),
  ('PIL.PdfImagePlugin',
   'c:\\users\\z0044wmy\\appdata\\local\\continuum\\anaconda3\\envs\\mark_gen_git\\lib\\site-packages\\PIL\\PdfImagePlugin.py',
   'PYMODULE'),
  ('PIL.PdfParser',
   'c:\\users\\z0044wmy\\appdata\\local\\continuum\\anaconda3\\envs\\mark_gen_git\\lib\\site-packages\\PIL\\PdfParser.py',
   'PYMODULE'),
  ('PIL.ImageSequence',
   'c:\\users\\z0044wmy\\appdata\\local\\continuum\\anaconda3\\envs\\mark_gen_git\\lib\\site-packages\\PIL\\ImageSequence.py',
   'PYMODULE'),
  ('PIL.DdsImagePlugin',
   'c:\\users\\z0044wmy\\appdata\\local\\continuum\\anaconda3\\envs\\mark_gen_git\\lib\\site-packages\\PIL\\DdsImagePlugin.py',
   'PYMODULE'),
  ('PIL.CurImagePlugin',
   'c:\\users\\z0044wmy\\appdata\\local\\continuum\\anaconda3\\envs\\mark_gen_git\\lib\\site-packages\\PIL\\CurImagePlugin.py',
   'PYMODULE'),
  ('PIL.MpoImagePlugin',
   'c:\\users\\z0044wmy\\appdata\\local\\continuum\\anaconda3\\envs\\mark_gen_git\\lib\\site-packages\\PIL\\MpoImagePlugin.py',
   'PYMODULE'),
  ('PIL.XbmImagePlugin',
   'c:\\users\\z0044wmy\\appdata\\local\\continuum\\anaconda3\\envs\\mark_gen_git\\lib\\site-packages\\PIL\\XbmImagePlugin.py',
   'PYMODULE'),
  ('PIL.EpsImagePlugin',
   'c:\\users\\z0044wmy\\appdata\\local\\continuum\\anaconda3\\envs\\mark_gen_git\\lib\\site-packages\\PIL\\EpsImagePlugin.py',
   'PYMODULE'),
  ('PIL.PcdImagePlugin',
   'c:\\users\\z0044wmy\\appdata\\local\\continuum\\anaconda3\\envs\\mark_gen_git\\lib\\site-packages\\PIL\\PcdImagePlugin.py',
   'PYMODULE'),
  ('PIL.FitsStubImagePlugin',
   'c:\\users\\z0044wmy\\appdata\\local\\continuum\\anaconda3\\envs\\mark_gen_git\\lib\\site-packages\\PIL\\FitsStubImagePlugin.py',
   'PYMODULE'),
  ('PIL.ImtImagePlugin',
   'c:\\users\\z0044wmy\\appdata\\local\\continuum\\anaconda3\\envs\\mark_gen_git\\lib\\site-packages\\PIL\\ImtImagePlugin.py',
   'PYMODULE'),
  ('PIL.BufrStubImagePlugin',
   'c:\\users\\z0044wmy\\appdata\\local\\continuum\\anaconda3\\envs\\mark_gen_git\\lib\\site-packages\\PIL\\BufrStubImagePlugin.py',
   'PYMODULE'),
  ('PIL.TiffImagePlugin',
   'c:\\users\\z0044wmy\\appdata\\local\\continuum\\anaconda3\\envs\\mark_gen_git\\lib\\site-packages\\PIL\\TiffImagePlugin.py',
   'PYMODULE'),
  ('fractions',
   'c:\\users\\z0044wmy\\appdata\\local\\continuum\\anaconda3\\envs\\mark_gen_git\\lib\\fractions.py',
   'PYMODULE'),
  ('PIL.ImageShow',
   'c:\\users\\z0044wmy\\appdata\\local\\continuum\\anaconda3\\envs\\mark_gen_git\\lib\\site-packages\\PIL\\ImageShow.py',
   'PYMODULE'),
  ('PIL.ImageQt',
   'c:\\users\\z0044wmy\\appdata\\local\\continuum\\anaconda3\\envs\\mark_gen_git\\lib\\site-packages\\PIL\\ImageQt.py',
   'PYMODULE'),
  ('PIL.ImageColor',
   'c:\\users\\z0044wmy\\appdata\\local\\continuum\\anaconda3\\envs\\mark_gen_git\\lib\\site-packages\\PIL\\ImageColor.py',
   'PYMODULE'),
  ('colorsys',
   'c:\\users\\z0044wmy\\appdata\\local\\continuum\\anaconda3\\envs\\mark_gen_git\\lib\\colorsys.py',
   'PYMODULE'),
  ('PIL.ImageFilter',
   'c:\\users\\z0044wmy\\appdata\\local\\continuum\\anaconda3\\envs\\mark_gen_git\\lib\\site-packages\\PIL\\ImageFilter.py',
   'PYMODULE'),
  ('PIL.PyAccess',
   'c:\\users\\z0044wmy\\appdata\\local\\continuum\\anaconda3\\envs\\mark_gen_git\\lib\\site-packages\\PIL\\PyAccess.py',
   'PYMODULE'),
  ('PIL.ImagePalette',
   'c:\\users\\z0044wmy\\appdata\\local\\continuum\\anaconda3\\envs\\mark_gen_git\\lib\\site-packages\\PIL\\ImagePalette.py',
   'PYMODULE'),
  ('PIL.PaletteFile',
   'c:\\users\\z0044wmy\\appdata\\local\\continuum\\anaconda3\\envs\\mark_gen_git\\lib\\site-packages\\PIL\\PaletteFile.py',
   'PYMODULE'),
  ('PIL.GimpPaletteFile',
   'c:\\users\\z0044wmy\\appdata\\local\\continuum\\anaconda3\\envs\\mark_gen_git\\lib\\site-packages\\PIL\\GimpPaletteFile.py',
   'PYMODULE'),
  ('PIL.GimpGradientFile',
   'c:\\users\\z0044wmy\\appdata\\local\\continuum\\anaconda3\\envs\\mark_gen_git\\lib\\site-packages\\PIL\\GimpGradientFile.py',
   'PYMODULE'),
  ('PIL.PngImagePlugin',
   'c:\\users\\z0044wmy\\appdata\\local\\continuum\\anaconda3\\envs\\mark_gen_git\\lib\\site-packages\\PIL\\PngImagePlugin.py',
   'PYMODULE'),
  ('PIL.ImageChops',
   'c:\\users\\z0044wmy\\appdata\\local\\continuum\\anaconda3\\envs\\mark_gen_git\\lib\\site-packages\\PIL\\ImageChops.py',
   'PYMODULE'),
  ('PIL.PpmImagePlugin',
   'c:\\users\\z0044wmy\\appdata\\local\\continuum\\anaconda3\\envs\\mark_gen_git\\lib\\site-packages\\PIL\\PpmImagePlugin.py',
   'PYMODULE'),
  ('PIL.JpegImagePlugin',
   'c:\\users\\z0044wmy\\appdata\\local\\continuum\\anaconda3\\envs\\mark_gen_git\\lib\\site-packages\\PIL\\JpegImagePlugin.py',
   'PYMODULE'),
  ('PIL.JpegPresets',
   'c:\\users\\z0044wmy\\appdata\\local\\continuum\\anaconda3\\envs\\mark_gen_git\\lib\\site-packages\\PIL\\JpegPresets.py',
   'PYMODULE'),
  ('PIL.GifImagePlugin',
   'c:\\users\\z0044wmy\\appdata\\local\\continuum\\anaconda3\\envs\\mark_gen_git\\lib\\site-packages\\PIL\\GifImagePlugin.py',
   'PYMODULE'),
  ('PIL.BmpImagePlugin',
   'c:\\users\\z0044wmy\\appdata\\local\\continuum\\anaconda3\\envs\\mark_gen_git\\lib\\site-packages\\PIL\\BmpImagePlugin.py',
   'PYMODULE'),
  ('PIL._util',
   'c:\\users\\z0044wmy\\appdata\\local\\continuum\\anaconda3\\envs\\mark_gen_git\\lib\\site-packages\\PIL\\_util.py',
   'PYMODULE'),
  ('PIL._binary',
   'c:\\users\\z0044wmy\\appdata\\local\\continuum\\anaconda3\\envs\\mark_gen_git\\lib\\site-packages\\PIL\\_binary.py',
   'PYMODULE'),
  ('PIL.TiffTags',
   'c:\\users\\z0044wmy\\appdata\\local\\continuum\\anaconda3\\envs\\mark_gen_git\\lib\\site-packages\\PIL\\TiffTags.py',
   'PYMODULE'),
  ('PIL.ImageMode',
   'c:\\users\\z0044wmy\\appdata\\local\\continuum\\anaconda3\\envs\\mark_gen_git\\lib\\site-packages\\PIL\\ImageMode.py',
   'PYMODULE'),
  ('PIL',
   'c:\\users\\z0044wmy\\appdata\\local\\continuum\\anaconda3\\envs\\mark_gen_git\\lib\\site-packages\\PIL\\__init__.py',
   'PYMODULE'),
  ('PIL._version',
   'c:\\users\\z0044wmy\\appdata\\local\\continuum\\anaconda3\\envs\\mark_gen_git\\lib\\site-packages\\PIL\\_version.py',
   'PYMODULE'),
  ('openpyxl.drawing.spreadsheet_drawing',
   'c:\\users\\z0044wmy\\appdata\\local\\continuum\\anaconda3\\envs\\mark_gen_git\\lib\\site-packages\\openpyxl\\drawing\\spreadsheet_drawing.py',
   'PYMODULE'),
  ('openpyxl.drawing.relation',
   'c:\\users\\z0044wmy\\appdata\\local\\continuum\\anaconda3\\envs\\mark_gen_git\\lib\\site-packages\\openpyxl\\drawing\\relation.py',
   'PYMODULE'),
  ('openpyxl.drawing.picture',
   'c:\\users\\z0044wmy\\appdata\\local\\continuum\\anaconda3\\envs\\mark_gen_git\\lib\\site-packages\\openpyxl\\drawing\\picture.py',
   'PYMODULE'),
  ('openpyxl.drawing.properties',
   'c:\\users\\z0044wmy\\appdata\\local\\continuum\\anaconda3\\envs\\mark_gen_git\\lib\\site-packages\\openpyxl\\drawing\\properties.py',
   'PYMODULE'),
  ('openpyxl.drawing.graphic',
   'c:\\users\\z0044wmy\\appdata\\local\\continuum\\anaconda3\\envs\\mark_gen_git\\lib\\site-packages\\openpyxl\\drawing\\graphic.py',
   'PYMODULE'),
  ('openpyxl.drawing.connector',
   'c:\\users\\z0044wmy\\appdata\\local\\continuum\\anaconda3\\envs\\mark_gen_git\\lib\\site-packages\\openpyxl\\drawing\\connector.py',
   'PYMODULE'),
  ('openpyxl.drawing.xdr',
   'c:\\users\\z0044wmy\\appdata\\local\\continuum\\anaconda3\\envs\\mark_gen_git\\lib\\site-packages\\openpyxl\\drawing\\xdr.py',
   'PYMODULE'),
  ('openpyxl.worksheet.table',
   'c:\\users\\z0044wmy\\appdata\\local\\continuum\\anaconda3\\envs\\mark_gen_git\\lib\\site-packages\\openpyxl\\worksheet\\table.py',
   'PYMODULE'),
  ('openpyxl.worksheet.related',
   'c:\\users\\z0044wmy\\appdata\\local\\continuum\\anaconda3\\envs\\mark_gen_git\\lib\\site-packages\\openpyxl\\worksheet\\related.py',
   'PYMODULE'),
  ('openpyxl.chartsheet',
   'c:\\users\\z0044wmy\\appdata\\local\\continuum\\anaconda3\\envs\\mark_gen_git\\lib\\site-packages\\openpyxl\\chartsheet\\__init__.py',
   'PYMODULE'),
  ('openpyxl.chartsheet.chartsheet',
   'c:\\users\\z0044wmy\\appdata\\local\\continuum\\anaconda3\\envs\\mark_gen_git\\lib\\site-packages\\openpyxl\\chartsheet\\chartsheet.py',
   'PYMODULE'),
  ('openpyxl.chartsheet.publish',
   'c:\\users\\z0044wmy\\appdata\\local\\continuum\\anaconda3\\envs\\mark_gen_git\\lib\\site-packages\\openpyxl\\chartsheet\\publish.py',
   'PYMODULE'),
  ('openpyxl.chartsheet.custom',
   'c:\\users\\z0044wmy\\appdata\\local\\continuum\\anaconda3\\envs\\mark_gen_git\\lib\\site-packages\\openpyxl\\chartsheet\\custom.py',
   'PYMODULE'),
  ('openpyxl.chartsheet.views',
   'c:\\users\\z0044wmy\\appdata\\local\\continuum\\anaconda3\\envs\\mark_gen_git\\lib\\site-packages\\openpyxl\\chartsheet\\views.py',
   'PYMODULE'),
  ('openpyxl.chartsheet.protection',
   'c:\\users\\z0044wmy\\appdata\\local\\continuum\\anaconda3\\envs\\mark_gen_git\\lib\\site-packages\\openpyxl\\chartsheet\\protection.py',
   'PYMODULE'),
  ('openpyxl.chartsheet.properties',
   'c:\\users\\z0044wmy\\appdata\\local\\continuum\\anaconda3\\envs\\mark_gen_git\\lib\\site-packages\\openpyxl\\chartsheet\\properties.py',
   'PYMODULE'),
  ('openpyxl.chartsheet.relation',
   'c:\\users\\z0044wmy\\appdata\\local\\continuum\\anaconda3\\envs\\mark_gen_git\\lib\\site-packages\\openpyxl\\chartsheet\\relation.py',
   'PYMODULE'),
  ('openpyxl.worksheet.drawing',
   'c:\\users\\z0044wmy\\appdata\\local\\continuum\\anaconda3\\envs\\mark_gen_git\\lib\\site-packages\\openpyxl\\worksheet\\drawing.py',
   'PYMODULE'),
  ('openpyxl.worksheet._reader',
   'c:\\users\\z0044wmy\\appdata\\local\\continuum\\anaconda3\\envs\\mark_gen_git\\lib\\site-packages\\openpyxl\\worksheet\\_reader.py',
   'PYMODULE'),
  ('openpyxl.cell.text',
   'c:\\users\\z0044wmy\\appdata\\local\\continuum\\anaconda3\\envs\\mark_gen_git\\lib\\site-packages\\openpyxl\\cell\\text.py',
   'PYMODULE'),
  ('openpyxl.worksheet._read_only',
   'c:\\users\\z0044wmy\\appdata\\local\\continuum\\anaconda3\\envs\\mark_gen_git\\lib\\site-packages\\openpyxl\\worksheet\\_read_only.py',
   'PYMODULE'),
  ('openpyxl.cell.read_only',
   'c:\\users\\z0044wmy\\appdata\\local\\continuum\\anaconda3\\envs\\mark_gen_git\\lib\\site-packages\\openpyxl\\cell\\read_only.py',
   'PYMODULE'),
  ('openpyxl.packaging.relationship',
   'c:\\users\\z0044wmy\\appdata\\local\\continuum\\anaconda3\\envs\\mark_gen_git\\lib\\site-packages\\openpyxl\\packaging\\relationship.py',
   'PYMODULE'),
  ('openpyxl.packaging',
   'c:\\users\\z0044wmy\\appdata\\local\\continuum\\anaconda3\\envs\\mark_gen_git\\lib\\site-packages\\openpyxl\\packaging\\__init__.py',
   'PYMODULE'),
  ('openpyxl.packaging.manifest',
   'c:\\users\\z0044wmy\\appdata\\local\\continuum\\anaconda3\\envs\\mark_gen_git\\lib\\site-packages\\openpyxl\\packaging\\manifest.py',
   'PYMODULE'),
  ('openpyxl.packaging.core',
   'c:\\users\\z0044wmy\\appdata\\local\\continuum\\anaconda3\\envs\\mark_gen_git\\lib\\site-packages\\openpyxl\\packaging\\core.py',
   'PYMODULE'),
  ('openpyxl.styles.stylesheet',
   'c:\\users\\z0044wmy\\appdata\\local\\continuum\\anaconda3\\envs\\mark_gen_git\\lib\\site-packages\\openpyxl\\styles\\stylesheet.py',
   'PYMODULE'),
  ('openpyxl.styles.table',
   'c:\\users\\z0044wmy\\appdata\\local\\continuum\\anaconda3\\envs\\mark_gen_git\\lib\\site-packages\\openpyxl\\styles\\table.py',
   'PYMODULE'),
  ('openpyxl.reader.workbook',
   'c:\\users\\z0044wmy\\appdata\\local\\continuum\\anaconda3\\envs\\mark_gen_git\\lib\\site-packages\\openpyxl\\reader\\workbook.py',
   'PYMODULE'),
  ('openpyxl.pivot.record',
   'c:\\users\\z0044wmy\\appdata\\local\\continuum\\anaconda3\\envs\\mark_gen_git\\lib\\site-packages\\openpyxl\\pivot\\record.py',
   'PYMODULE'),
  ('openpyxl.pivot',
   'c:\\users\\z0044wmy\\appdata\\local\\continuum\\anaconda3\\envs\\mark_gen_git\\lib\\site-packages\\openpyxl\\pivot\\__init__.py',
   'PYMODULE'),
  ('openpyxl.pivot.fields',
   'c:\\users\\z0044wmy\\appdata\\local\\continuum\\anaconda3\\envs\\mark_gen_git\\lib\\site-packages\\openpyxl\\pivot\\fields.py',
   'PYMODULE'),
  ('openpyxl.pivot.cache',
   'c:\\users\\z0044wmy\\appdata\\local\\continuum\\anaconda3\\envs\\mark_gen_git\\lib\\site-packages\\openpyxl\\pivot\\cache.py',
   'PYMODULE'),
  ('openpyxl.workbook.external_link.external',
   'c:\\users\\z0044wmy\\appdata\\local\\continuum\\anaconda3\\envs\\mark_gen_git\\lib\\site-packages\\openpyxl\\workbook\\external_link\\external.py',
   'PYMODULE'),
  ('openpyxl.workbook.external_link',
   'c:\\users\\z0044wmy\\appdata\\local\\continuum\\anaconda3\\envs\\mark_gen_git\\lib\\site-packages\\openpyxl\\workbook\\external_link\\__init__.py',
   'PYMODULE'),
  ('openpyxl.packaging.workbook',
   'c:\\users\\z0044wmy\\appdata\\local\\continuum\\anaconda3\\envs\\mark_gen_git\\lib\\site-packages\\openpyxl\\packaging\\workbook.py',
   'PYMODULE'),
  ('openpyxl.workbook.web',
   'c:\\users\\z0044wmy\\appdata\\local\\continuum\\anaconda3\\envs\\mark_gen_git\\lib\\site-packages\\openpyxl\\workbook\\web.py',
   'PYMODULE'),
  ('openpyxl.workbook.views',
   'c:\\users\\z0044wmy\\appdata\\local\\continuum\\anaconda3\\envs\\mark_gen_git\\lib\\site-packages\\openpyxl\\workbook\\views.py',
   'PYMODULE'),
  ('openpyxl.workbook.smart_tags',
   'c:\\users\\z0044wmy\\appdata\\local\\continuum\\anaconda3\\envs\\mark_gen_git\\lib\\site-packages\\openpyxl\\workbook\\smart_tags.py',
   'PYMODULE'),
  ('openpyxl.workbook.protection',
   'c:\\users\\z0044wmy\\appdata\\local\\continuum\\anaconda3\\envs\\mark_gen_git\\lib\\site-packages\\openpyxl\\workbook\\protection.py',
   'PYMODULE'),
  ('openpyxl.workbook.properties',
   'c:\\users\\z0044wmy\\appdata\\local\\continuum\\anaconda3\\envs\\mark_gen_git\\lib\\site-packages\\openpyxl\\workbook\\properties.py',
   'PYMODULE'),
  ('openpyxl.workbook.function_group',
   'c:\\users\\z0044wmy\\appdata\\local\\continuum\\anaconda3\\envs\\mark_gen_git\\lib\\site-packages\\openpyxl\\workbook\\function_group.py',
   'PYMODULE'),
  ('openpyxl.workbook.external_reference',
   'c:\\users\\z0044wmy\\appdata\\local\\continuum\\anaconda3\\envs\\mark_gen_git\\lib\\site-packages\\openpyxl\\workbook\\external_reference.py',
   'PYMODULE'),
  ('openpyxl.reader.strings',
   'c:\\users\\z0044wmy\\appdata\\local\\continuum\\anaconda3\\envs\\mark_gen_git\\lib\\site-packages\\openpyxl\\reader\\strings.py',
   'PYMODULE'),
  ('openpyxl.comments.comment_sheet',
   'c:\\users\\z0044wmy\\appdata\\local\\continuum\\anaconda3\\envs\\mark_gen_git\\lib\\site-packages\\openpyxl\\comments\\comment_sheet.py',
   'PYMODULE'),
  ('openpyxl.comments',
   'c:\\users\\z0044wmy\\appdata\\local\\continuum\\anaconda3\\envs\\mark_gen_git\\lib\\site-packages\\openpyxl\\comments\\__init__.py',
   'PYMODULE'),
  ('openpyxl.comments.shape_writer',
   'c:\\users\\z0044wmy\\appdata\\local\\continuum\\anaconda3\\envs\\mark_gen_git\\lib\\site-packages\\openpyxl\\comments\\shape_writer.py',
   'PYMODULE'),
  ('openpyxl.comments.comments',
   'c:\\users\\z0044wmy\\appdata\\local\\continuum\\anaconda3\\envs\\mark_gen_git\\lib\\site-packages\\openpyxl\\comments\\comments.py',
   'PYMODULE'),
  ('openpyxl.comments.author',
   'c:\\users\\z0044wmy\\appdata\\local\\continuum\\anaconda3\\envs\\mark_gen_git\\lib\\site-packages\\openpyxl\\comments\\author.py',
   'PYMODULE'),
  ('openpyxl.cell',
   'c:\\users\\z0044wmy\\appdata\\local\\continuum\\anaconda3\\envs\\mark_gen_git\\lib\\site-packages\\openpyxl\\cell\\__init__.py',
   'PYMODULE'),
  ('openpyxl.pivot.table',
   'c:\\users\\z0044wmy\\appdata\\local\\continuum\\anaconda3\\envs\\mark_gen_git\\lib\\site-packages\\openpyxl\\pivot\\table.py',
   'PYMODULE'),
  ('openpyxl.workbook',
   'c:\\users\\z0044wmy\\appdata\\local\\continuum\\anaconda3\\envs\\mark_gen_git\\lib\\site-packages\\openpyxl\\workbook\\__init__.py',
   'PYMODULE'),
  ('openpyxl.workbook.workbook',
   'c:\\users\\z0044wmy\\appdata\\local\\continuum\\anaconda3\\envs\\mark_gen_git\\lib\\site-packages\\openpyxl\\workbook\\workbook.py',
   'PYMODULE'),
  ('openpyxl.writer.excel',
   'c:\\users\\z0044wmy\\appdata\\local\\continuum\\anaconda3\\envs\\mark_gen_git\\lib\\site-packages\\openpyxl\\writer\\excel.py',
   'PYMODULE'),
  ('openpyxl.writer',
   'c:\\users\\z0044wmy\\appdata\\local\\continuum\\anaconda3\\envs\\mark_gen_git\\lib\\site-packages\\openpyxl\\writer\\__init__.py',
   'PYMODULE'),
  ('openpyxl.writer.theme',
   'c:\\users\\z0044wmy\\appdata\\local\\continuum\\anaconda3\\envs\\mark_gen_git\\lib\\site-packages\\openpyxl\\writer\\theme.py',
   'PYMODULE'),
  ('openpyxl.workbook._writer',
   'c:\\users\\z0044wmy\\appdata\\local\\continuum\\anaconda3\\envs\\mark_gen_git\\lib\\site-packages\\openpyxl\\workbook\\_writer.py',
   'PYMODULE'),
  ('openpyxl.worksheet._writer',
   'c:\\users\\z0044wmy\\appdata\\local\\continuum\\anaconda3\\envs\\mark_gen_git\\lib\\site-packages\\openpyxl\\worksheet\\_writer.py',
   'PYMODULE'),
  ('openpyxl.cell._writer',
   'c:\\users\\z0044wmy\\appdata\\local\\continuum\\anaconda3\\envs\\mark_gen_git\\lib\\site-packages\\openpyxl\\cell\\_writer.py',
   'PYMODULE'),
  ('openpyxl.packaging.extended',
   'c:\\users\\z0044wmy\\appdata\\local\\continuum\\anaconda3\\envs\\mark_gen_git\\lib\\site-packages\\openpyxl\\packaging\\extended.py',
   'PYMODULE'),
  ('openpyxl.worksheet.copier',
   'c:\\users\\z0044wmy\\appdata\\local\\continuum\\anaconda3\\envs\\mark_gen_git\\lib\\site-packages\\openpyxl\\worksheet\\copier.py',
   'PYMODULE'),
  ('openpyxl.worksheet._write_only',
   'c:\\users\\z0044wmy\\appdata\\local\\continuum\\anaconda3\\envs\\mark_gen_git\\lib\\site-packages\\openpyxl\\worksheet\\_write_only.py',
   'PYMODULE')])
